0.001 0.000999 0.000999
0.011 0.0108797 0.0108797
0.021 0.0205636 0.0205636
0.031 0.0300537 0.0300537
0.041 0.039353 0.039353
0.051 0.0484642 0.0484642
0.061 0.0573902 0.0573902
0.071 0.0661338 0.0661338
0.081 0.0746977 0.0746977
0.091 0.0830846 0.0830846
0.101 0.0912972 0.0912972
0.111 0.0993382 0.0993382
0.121 0.10721 0.10721
0.131 0.114916 0.114916
0.141 0.122457 0.122457
0.151 0.129837 0.129837
0.161 0.137058 0.137058
0.171 0.144122 0.144122
0.181 0.151033 0.151033
0.191 0.157791 0.157791
0.201 0.1644 0.1644
0.211 0.170862 0.170862
0.221 0.177179 0.177179
0.231 0.183354 0.183354
0.241 0.189388 0.189388
0.251 0.195284 0.195284
0.261 0.201043 0.201043
0.271 0.206669 0.206669
0.281 0.212163 0.212163
0.291 0.217527 0.217527
0.301 0.222763 0.222763
0.311 0.227874 0.227874
0.321 0.232861 0.232861
0.331 0.237726 0.237726
0.341 0.242471 0.242471
0.351 0.247098 0.247098
0.361 0.251609 0.251609
0.371 0.256006 0.256006
0.381 0.26029 0.260291
0.391 0.264464 0.264465
0.401 0.268529 0.26853
0.411 0.272487 0.272488
0.421 0.27634 0.27634
0.431 0.280089 0.280089
0.441 0.283736 0.283736
0.451 0.287282 0.287283
0.461 0.29073 0.290731
0.471 0.294081 0.294082
0.481 0.297337 0.297337
0.491 0.300498 0.300499
0.501 0.303567 0.303568
0.511 0.306546 0.306547
0.521 0.309435 0.309436
0.531 0.312236 0.312237
0.541 0.314951 0.314952
0.551 0.317581 0.317582
0.561 0.320127 0.320128
0.571 0.322591 0.322592
0.581 0.324975 0.324976
0.591 0.327279 0.32728
0.601 0.329505 0.329506
0.611 0.331654 0.331656
0.621 0.333728 0.33373
0.631 0.335728 0.33573
0.641 0.337655 0.337657
0.651 0.339511 0.339512
0.661 0.341296 0.341297
0.671 0.343012 0.343013
0.681 0.34466 0.344661
0.691 0.346241 0.346243
0.701 0.347757 0.347758
0.711 0.349208 0.34921
0.721 0.350596 0.350598
0.731 0.351921 0.351923
0.741 0.353186 0.353188
0.751 0.354391 0.354393
0.761 0.355536 0.355538
0.771 0.356624 0.356626
0.781 0.357655 0.357657
0.791 0.35863 0.358632
0.801 0.35955 0.359553
0.811 0.360417 0.360419
0.821 0.36123 0.361233
0.831 0.361992 0.361995
0.841 0.362703 0.362706
0.851 0.363364 0.363367
0.861 0.363975 0.363978
0.871 0.364539 0.364542
0.881 0.365055 0.365059
0.891 0.365525 0.365529
0.901 0.36595 0.365953
0.911 0.366329 0.366333
0.921 0.366666 0.366669
0.931 0.366959 0.366962
0.941 0.36721 0.367213
0.951 0.367419 0.367423
0.961 0.367588 0.367592
0.971 0.367718 0.367722
0.981 0.367808 0.367812
0.991 0.36786 0.367864
1.001 0.367875 0.367879
1.011 0.367853 0.367857
1.021 0.367795 0.367799
1.031 0.367701 0.367706
1.041 0.367574 0.367579
1.051 0.367412 0.367417
1.061 0.367217 0.367222
1.071 0.36699 0.366995
1.081 0.36673 0.366736
1.091 0.36644 0.366446
1.101 0.366119 0.366125
1.111 0.365768 0.365774
1.121 0.365388 0.365394
1.131 0.364979 0.364985
1.141 0.364543 0.364549
1.151 0.364078 0.364085
1.161 0.363587 0.363594
1.171 0.36307 0.363076
1.181 0.362527 0.362533
1.191 0.361959 0.361965
1.201 0.361366 0.361373
1.211 0.360749 0.360756
1.221 0.360108 0.360116
1.231 0.359445 0.359453
1.241 0.358759 0.358767
1.251 0.358052 0.358059
1.261 0.357322 0.35733
1.271 0.356572 0.35658
1.281 0.355802 0.35581
1.291 0.355011 0.355019
1.301 0.354201 0.354209
1.311 0.353372 0.353381
1.321 0.352524 0.352533
1.331 0.351659 0.351667
1.341 0.350775 0.350784
1.351 0.349874 0.349884
1.361 0.348957 0.348966
1.371 0.348023 0.348032
1.381 0.347073 0.347083
1.391 0.346108 0.346117
1.401 0.345127 0.345137
1.411 0.344132 0.344142
1.421 0.343122 0.343132
1.431 0.342098 0.342109
1.441 0.341061 0.341072
1.451 0.340011 0.340021
1.461 0.338947 0.338958
1.471 0.337871 0.337882
1.481 0.336783 0.336794
1.491 0.335683 0.335695
1.501 0.334572 0.334584
1.511 0.33345 0.333461
1.521 0.332316 0.332328
1.531 0.331173 0.331185
1.541 0.330019 0.330031
1.551 0.328855 0.328868
1.561 0.327682 0.327695
1.571 0.326499 0.326512
1.581 0.325308 0.325321
1.591 0.324108 0.324121
1.601 0.3229 0.322913
1.611 0.321683 0.321697
1.621 0.320459 0.320473
1.631 0.319228 0.319242
1.641 0.317989 0.318003
1.651 0.316743 0.316757
1.661 0.315491 0.315505
1.671 0.314232 0.314246
1.681 0.312966 0.312982
1.691 0.311695 0.311711
1.701 0.310419 0.310434
1.711 0.309136 0.309152
1.721 0.307849 0.307865
1.731 0.306557 0.306573
1.741 0.305259 0.305276
1.751 0.303958 0.303974
1.761 0.302652 0.302668
1.771 0.301341 0.301358
1.781 0.300027 0.300044
1.791 0.298709 0.298727
1.801 0.297388 0.297406
1.811 0.296064 0.296081
1.821 0.294736 0.294754
1.831 0.293406 0.293424
1.841 0.292072 0.292091
1.851 0.290736 0.290755
1.861 0.289398 0.289417
1.871 0.288058 0.288077
1.881 0.286716 0.286735
1.891 0.285372 0.285391
1.901 0.284026 0.284046
1.911 0.282679 0.282699
1.921 0.28133 0.28135
1.931 0.279981 0.280001
1.941 0.27863 0.278651
1.951 0.277278 0.277299
1.961 0.275926 0.275947
1.971 0.274573 0.274595
1.981 0.27322 0.273242
1.991 0.271867 0.271889
2.001 0.270513 0.270535
2.011 0.26916 0.269182
2.021 0.267806 0.267829
2.031 0.266453 0.266476
2.041 0.2651 0.265123
2.051 0.263748 0.263771
2.061 0.262397 0.26242
2.071 0.261046 0.26107
2.081 0.259696 0.25972
2.091 0.258347 0.258371
2.101 0.256999 0.257024
2.111 0.255653 0.255678
2.121 0.254308 0.254333
2.131 0.252964 0.252989
2.141 0.251622 0.251647
2.151 0.250281 0.250307
2.161 0.248942 0.248968
2.171 0.247606 0.247632
2.181 0.246271 0.246297
2.191 0.244938 0.244965
2.201 0.243607 0.243634
2.211 0.242278 0.242306
2.221 0.240952 0.24098
2.231 0.239628 0.239656
2.241 0.238307 0.238335
2.251 0.236988 0.237017
2.261 0.235672 0.235701
2.271 0.234358 0.234387
2.281 0.233048 0.233077
2.291 0.23174 0.23177
2.301 0.230435 0.230465
2.311 0.229133 0.229163
2.321 0.227835 0.227865
2.331 0.226539 0.22657
2.341 0.225247 0.225278
2.351 0.223957 0.223989
2.361 0.222672 0.222703
2.371 0.221389 0.221421
2.381 0.22011 0.220143
2.391 0.218835 0.218868
2.401 0.217563 0.217596
2.411 0.216295 0.216328
2.421 0.215031 0.215064
2.431 0.21377 0.213804
2.441 0.212513 0.212547
2.451 0.21126 0.211294
2.461 0.210011 0.210045
2.471 0.208765 0.2088
2.481 0.207524 0.207559
2.491 0.206287 0.206322
2.501 0.205054 0.205089
2.511 0.203824 0.203861
2.521 0.202599 0.202636
2.531 0.201379 0.201415
2.541 0.200162 0.200199
2.551 0.19895 0.198987
2.561 0.197742 0.19778
2.571 0.196538 0.196576
2.581 0.195339 0.195377
2.591 0.194144 0.194183
2.601 0.192953 0.192992
2.611 0.191767 0.191807
2.621 0.190586 0.190626
2.631 0.189409 0.189449
2.641 0.188236 0.188277
2.651 0.187068 0.187109
2.661 0.185905 0.185946
2.671 0.184746 0.184788
2.681 0.183592 0.183634
2.691 0.182443 0.182485
2.701 0.181298 0.181341
2.711 0.180158 0.180201
2.721 0.179023 0.179066
2.731 0.177892 0.177936
2.741 0.176766 0.17681
2.751 0.175645 0.17569
2.761 0.174529 0.174574
2.771 0.173418 0.173463
2.781 0.172311 0.172357
2.791 0.171209 0.171255
2.801 0.170113 0.170159
2.811 0.16902 0.169067
2.821 0.167933 0.16798
2.831 0.166851 0.166898
2.841 0.165774 0.165821
2.851 0.164701 0.164749
2.861 0.163634 0.163682
2.871 0.162571 0.16262
2.881 0.161513 0.161563
2.891 0.160461 0.16051
2.901 0.159413 0.159463
2.911 0.15837 0.15842
2.921 0.157332 0.157383
2.931 0.156299 0.15635
2.941 0.155271 0.155323
2.951 0.154248 0.1543
2.961 0.15323 0.153282
2.971 0.152217 0.15227
2.981 0.151209 0.151262
2.991 0.150206 0.150259
3.001 0.149208 0.149262
3.011 0.148214 0.148269
3.021 0.147226 0.147281
3.031 0.146243 0.146298
3.041 0.145265 0.145321
3.051 0.144291 0.144348
3.061 0.143323 0.14338
3.071 0.14236 0.142417
3.081 0.141401 0.141459
3.091 0.140448 0.140506
3.101 0.139499 0.139558
3.111 0.138556 0.138615
3.121 0.137617 0.137677
3.131 0.136684 0.136744
3.141 0.135755 0.135815
3.151 0.134831 0.134892
3.161 0.133912 0.133974
3.171 0.132999 0.13306
3.181 0.13209 0.132152
3.191 0.131185 0.131248
3.201 0.130286 0.130349
3.211 0.129392 0.129456
3.221 0.128503 0.128567
3.231 0.127618 0.127683
3.241 0.126738 0.126803
3.251 0.125863 0.125929
3.261 0.124993 0.125059
3.271 0.124128 0.124195
3.281 0.123268 0.123335
3.291 0.122412 0.12248
3.301 0.121562 0.12163
3.311 0.120716 0.120784
3.321 0.119874 0.119944
3.331 0.119038 0.119108
3.341 0.118206 0.118277
3.351 0.11738 0.11745
3.361 0.116557 0.116629
3.371 0.11574 0.115812
3.381 0.114927 0.114999
3.391 0.114119 0.114192
3.401 0.113316 0.113389
3.411 0.112517 0.112591
3.421 0.111723 0.111797
3.431 0.110934 0.111009
3.441 0.110149 0.110224
3.451 0.109369 0.109445
3.461 0.108593 0.10867
3.471 0.107822 0.107899
3.481 0.107056 0.107133
3.491 0.106294 0.106372
3.501 0.105536 0.105615
3.511 0.104784 0.104863
3.521 0.104035 0.104115
3.531 0.103292 0.103372
3.541 0.102552 0.102634
3.551 0.101817 0.101899
3.561 0.101087 0.101169
3.571 0.100361 0.100444
3.581 0.0996394 0.0997231
3.591 0.0989223 0.0990065
3.601 0.0982095 0.0982944
3.611 0.0975011 0.0975866
3.621 0.096797 0.0968831
3.631 0.0960972 0.096184
3.641 0.0954018 0.0954892
3.651 0.0947107 0.0947988
3.661 0.0940239 0.0941126
3.671 0.0933413 0.0934306
3.681 0.092663 0.092753
3.691 0.0919889 0.0920795
3.701 0.091319 0.0914103
3.711 0.0906533 0.0907453
3.721 0.0899918 0.0900845
3.731 0.0893344 0.0894278
3.741 0.0886812 0.0887753
3.751 0.0880322 0.0881269
3.761 0.0873872 0.0874826
3.771 0.0867463 0.0868424
3.781 0.0861095 0.0862063
3.791 0.0854768 0.0855743
3.801 0.0848481 0.0849463
3.811 0.0842234 0.0843223
3.821 0.0836027 0.0837024
3.831 0.082986 0.0830864
3.841 0.0823733 0.0824744
3.851 0.0817645 0.0818664
3.861 0.0811596 0.0812622
3.871 0.0805587 0.080662
3.881 0.0799616 0.0800657
3.891 0.0793685 0.0794733
3.901 0.0787791 0.0788848
3.911 0.0781937 0.0783001
3.921 0.077612 0.0777192
3.931 0.0770341 0.0771421
3.941 0.0764601 0.0765688
3.951 0.0758897 0.0759993
3.961 0.0753232 0.0754335
3.971 0.0747603 0.0748715
3.981 0.0742012 0.0743132
3.991 0.0736458 0.0737586
4.001 0.073094 0.0732076
4.011 0.0725459 0.0726604
4.021 0.0720015 0.0721167
4.031 0.0714606 0.0715767
4.041 0.0709234 0.0710403
4.051 0.0703897 0.0705075
4.061 0.0698596 0.0699783
4.071 0.069333 0.0694526
4.081 0.06881 0.0689304
4.091 0.0682905 0.0684118
4.101 0.0677745 0.0678966
4.111 0.0672619 0.0673849
4.121 0.0667528 0.0668767
4.131 0.0662471 0.066372
4.141 0.0657449 0.0658706
4.151 0.065246 0.0653727
4.161 0.0647505 0.0648781
4.171 0.0642584 0.064387
4.181 0.0637697 0.0638991
4.191 0.0632842 0.0634146
4.201 0.0628021 0.0629335
4.211 0.0623232 0.0624556
4.221 0.0618477 0.061981
4.231 0.0613753 0.0615096
4.241 0.0609063 0.0610415
4.251 0.0604404 0.0605767
4.261 0.0599777 0.060115
4.271 0.0595183 0.0596565
4.281 0.0590619 0.0592012
4.291 0.0586088 0.0587491
4.301 0.0581587 0.0583
4.311 0.0577118 0.0578541
4.321 0.057268 0.0574114
4.331 0.0568272 0.0569716
4.341 0.0563895 0.056535
4.351 0.0559548 0.0561014
4.361 0.0555232 0.0556708
4.371 0.0550946 0.0552433
4.381 0.0546689 0.0548187
4.391 0.0542462 0.0543972
4.401 0.0538265 0.0539786
4.411 0.0534097 0.0535629
4.421 0.0529959 0.0531502
4.431 0.0525849 0.0527403
4.441 0.0521768 0.0523334
4.451 0.0517716 0.0519293
4.461 0.0513693 0.0515281
4.471 0.0509697 0.0511298
4.481 0.050573 0.0507343
4.491 0.0501791 0.0503415
4.501 0.049788 0.0499516
4.511 0.0493996 0.0495645
4.521 0.049014 0.0491801
4.531 0.0486311 0.0487984
4.541 0.048251 0.0484195
4.551 0.0478735 0.0480433
4.561 0.0474987 0.0476698
4.571 0.0471266 0.0472989
4.581 0.0467572 0.0469307
4.591 0.0463903 0.0465652
4.601 0.0460261 0.0462023
4.611 0.0456645 0.045842
4.621 0.0453055 0.0454843
4.631 0.044949 0.0451291
4.641 0.0445951 0.0447766
4.651 0.0442438 0.0444266
4.661 0.0438949 0.0440791
4.671 0.0435486 0.0437341
4.681 0.0432048 0.0433917
4.691 0.0428634 0.0430517
4.701 0.0425245 0.0427142
4.711 0.042188 0.0423791
4.721 0.041854 0.0420465
4.731 0.0415223 0.0417163
4.741 0.0411931 0.0413885
4.751 0.0408662 0.0410631
4.761 0.0405418 0.0407401
4.771 0.0402196 0.0404195
4.781 0.0398998 0.0401011
4.791 0.0395824 0.0397852
4.801 0.0392672 0.0394715
4.811 0.0389543 0.0391602
4.821 0.0386437 0.0388511
4.831 0.0383354 0.0385443
4.841 0.0380293 0.0382398
4.851 0.0377254 0.0379375
4.861 0.0374237 0.0376374
4.871 0.0371243 0.0373396
4.881 0.036827 0.037044
4.891 0.0365319 0.0367505
4.901 0.036239 0.0364592
4.911 0.0359482 0.0361701
4.921 0.0356596 0.0358831
4.931 0.0353731 0.0355983
4.941 0.0350886 0.0353155
4.951 0.0348063 0.0350349
4.961 0.034526 0.0347564
4.971 0.0342478 0.0344799
4.981 0.0339716 0.0342055
4.991 0.0336975 0.0339331
5.001 0.0334254 0.0336628
5.011 0.0331553 0.0333945
5.021 0.0328872 0.0331282
5.031 0.0326211 0.0328639
5.041 0.0323569 0.0326015
5.051 0.0320947 0.0323412
5.061 0.0318344 0.0320828
5.071 0.031576 0.0318263
5.081 0.0313196 0.0315718
5.091 0.0310651 0.0313191
5.101 0.0308124 0.0310684
5.111 0.0305616 0.0308196
5.121 0.0303127 0.0305726
5.131 0.0300656 0.0303275
5.141 0.0298204 0.0300843
5.151 0.029577 0.0298429
5.161 0.0293354 0.0296033
5.171 0.0290955 0.0293655
5.181 0.0288575 0.0291296
5.191 0.0286213 0.0288954
5.201 0.0283868 0.028663
5.211 0.028154 0.0284323
5.221 0.027923 0.0282034
5.231 0.0276937 0.0279763
5.241 0.0274661 0.0277509
5.251 0.0272402 0.0275272
5.261 0.027016 0.0273052
5.271 0.0267935 0.0270849
5.281 0.0265726 0.0268662
5.291 0.0263534 0.0266493
5.301 0.0261359 0.026434
5.311 0.0259199 0.0262203
5.321 0.0257056 0.0260083
5.331 0.0254929 0.0257979
5.341 0.0252817 0.0255891
5.351 0.0250722 0.025382
5.361 0.0248642 0.0251764
5.371 0.0246578 0.0249724
5.381 0.0244529 0.0247699
5.391 0.0242496 0.024569
5.401 0.0240478 0.0243697
5.411 0.0238475 0.0241719
5.421 0.0236487 0.0239756
5.431 0.0234514 0.0237808
5.441 0.0232555 0.0235875
5.451 0.0230612 0.0233957
5.461 0.0228683 0.0232055
5.471 0.0226769 0.0230166
5.481 0.0224868 0.0228293
5.491 0.0222983 0.0226433
5.501 0.0221111 0.0224589
5.511 0.0219254 0.0222758
5.521 0.021741 0.0220942
5.531 0.021558 0.021914
5.541 0.0213765 0.0217351
5.551 0.0211962 0.0215577
5.561 0.0210174 0.0213817
5.571 0.0208398 0.021207
5.581 0.0206636 0.0210336
5.591 0.0204888 0.0208617
5.601 0.0203152 0.020691
5.611 0.020143 0.0205217
5.621 0.0199721 0.0203537
5.631 0.0198024 0.0201871
5.641 0.019634 0.0200217
5.651 0.0194669 0.0198576
5.661 0.019301 0.0196948
5.671 0.0191364 0.0195333
5.681 0.0189731 0.019373
5.691 0.0188109 0.019214
5.701 0.01865 0.0190563
5.711 0.0184903 0.0188998
5.721 0.0183318 0.0187445
5.731 0.0181745 0.0185904
5.741 0.0180183 0.0184375
5.751 0.0178634 0.0182859
5.761 0.0177096 0.0181354
5.771 0.017557 0.0179861
5.781 0.0174055 0.017838
5.791 0.0172551 0.0176911
5.801 0.0171059 0.0175453
5.811 0.0169578 0.0174007
5.821 0.0168108 0.0172572
5.831 0.0166649 0.0171148
5.841 0.0165201 0.0169736
5.851 0.0163764 0.0168334
5.861 0.0162338 0.0166944
5.871 0.0160922 0.0165565
5.881 0.0159517 0.0164197
5.891 0.0158123 0.016284
5.901 0.0156739 0.0161493
5.911 0.0155365 0.0160157
5.921 0.0154002 0.0158832
5.931 0.0152649 0.0157517
5.941 0.0151306 0.0156213
5.951 0.0149973 0.0154919
5.961 0.014865 0.0153635
5.971 0.0147336 0.0152361
5.981 0.0146033 0.0151098
5.991 0.0144739 0.0149845
6.001 0.0143455 0.0148601
6.011 0.0142181 0.0147368
6.021 0.0140916 0.0146144
6.031 0.013966 0.014493
6.041 0.0138414 0.0143726
6.051 0.0137177 0.0142532
6.061 0.0135949 0.0141347
6.071 0.0134731 0.0140171
6.081 0.0133521 0.0139005
6.091 0.013232 0.0137848
6.101 0.0131129 0.0136701
6.111 0.0129946 0.0135562
6.121 0.0128771 0.0134433
6.131 0.0127606 0.0133313
6.141 0.0126449 0.0132202
6.151 0.01253 0.0131099
6.161 0.012416 0.0130006
6.171 0.0123029 0.0128921
6.181 0.0121905 0.0127845
6.191 0.012079 0.0126778
6.201 0.0119684 0.0125719
6.211 0.0118585 0.0124669
6.221 0.0117494 0.0123627
6.231 0.0116411 0.0122594
6.241 0.0115336 0.0121569
6.251 0.0114269 0.0120552
6.261 0.011321 0.0119543
6.271 0.0112159 0.0118543
6.281 0.0111115 0.0117551
6.291 0.0110078 0.0116566
6.301 0.010905 0.011559
6.311 0.0108028 0.0114621
6.321 0.0107014 0.0113661
6.331 0.0106008 0.0112708
6.341 0.0105008 0.0111763
6.351 0.0104016 0.0110825
6.361 0.0103031 0.0109895
6.371 0.0102053 0.0108973
6.381 0.0101082 0.0108058
6.391 0.0100118 0.010715
6.401 0.00991604 0.010625
6.411 0.00982099 0.0105357
6.421 0.00972663 0.0104471
6.431 0.00963293 0.0103593
6.441 0.0095399 0.0102722
6.451 0.00944752 0.0101858
6.461 0.0093558 0.0101
6.471 0.00926472 0.010015
6.481 0.00917429 0.00993069
6.491 0.00908448 0.00984705
6.501 0.00899531 0.00976409
6.511 0.00890676 0.0096818
6.521 0.00881882 0.00960019
6.531 0.0087315 0.00951924
6.541 0.00864478 0.00943896
6.551 0.00855867 0.00935932
6.561 0.00847314 0.00928034
6.571 0.00838821 0.009202
6.581 0.00830386 0.00912431
6.591 0.00822009 0.00904725
6.601 0.00813689 0.00897081
6.611 0.00805425 0.00889501
6.621 0.00797218 0.00881982
6.631 0.00789067 0.00874525
6.641 0.0078097 0.00867129
6.651 0.00772929 0.00859794
6.661 0.00764941 0.00852519
6.671 0.00757007 0.00845303
6.681 0.00749126 0.00838147
6.691 0.00741297 0.00831049
6.701 0.0073352 0.0082401
6.711 0.00725795 0.00817028
6.721 0.0071812 0.00810104
6.731 0.00710496 0.00803236
6.741 0.00702922 0.00796426
6.751 0.00695398 0.00789671
6.761 0.00687922 0.00782971
6.771 0.00680495 0.00776327
6.781 0.00673116 0.00769738
6.791 0.00665784 0.00763203
6.801 0.00658499 0.00756721
6.811 0.00651261 0.00750293
6.821 0.00644069 0.00743919
6.831 0.00636922 0.00737596
6.841 0.0062982 0.00731326
6.851 0.00622763 0.00725108
6.861 0.0061575 0.00718941
6.871 0.0060878 0.00712824
6.881 0.00601854 0.00706759
6.891 0.0059497 0.00700743
6.901 0.00588129 0.00694778
6.911 0.00581329 0.00688861
6.921 0.00574571 0.00682994
6.931 0.00567853 0.00677175
6.941 0.00561176 0.00671404
6.951 0.00554539 0.00665681
6.961 0.00547942 0.00660006
6.971 0.00541383 0.00654377
6.981 0.00534863 0.00648796
6.991 0.00528381 0.0064326
7.001 0.00521937 0.0063777
7.011 0.0051553 0.00632326
7.021 0.0050916 0.00626928
7.031 0.00502827 0.00621574
7.041 0.00496529 0.00616264
7.051 0.00490267 0.00610999
7.061 0.0048404 0.00605777
7.071 0.00477848 0.00600599
7.081 0.0047169 0.00595464
7.091 0.00465566 0.00590371
7.101 0.00459475 0.00585321
7.111 0.00453417 0.00580313
7.121 0.00447392 0.00575347
7.131 0.00441399 0.00570422
7.141 0.00435438 0.00565538
7.151 0.00429508 0.00560695
7.161 0.00423609 0.00555893
7.171 0.00417741 0.0055113
7.181 0.00411902 0.00546407
7.191 0.00406094 0.00541723
7.201 0.00400315 0.00537079
7.211 0.00394564 0.00532473
7.221 0.00388842 0.00527906
7.231 0.00383149 0.00523377
7.241 0.00377483 0.00518886
7.251 0.00371844 0.00514433
7.261 0.00366232 0.00510016
7.271 0.00360647 0.00505637
7.281 0.00355088 0.00501294
7.291 0.00349555 0.00496988
7.301 0.00344047 0.00492718
7.311 0.00338564 0.00488483
7.321 0.00333106 0.00484284
7.331 0.00327671 0.00480121
7.341 0.00322261 0.00475992
7.351 0.00316874 0.00471898
7.361 0.0031151 0.00467838
7.371 0.00306169 0.00463812
7.381 0.0030085 0.0045982
7.391 0.00295553 0.00455861
7.401 0.00290278 0.00451936
7.411 0.00285024 0.00448044
7.421 0.00279791 0.00444184
7.431 0.00274578 0.00440357
7.441 0.00269385 0.00436562
7.451 0.00264212 0.00432799
7.461 0.00259058 0.00429068
7.471 0.00253923 0.00425368
7.481 0.00248807 0.00421699
7.491 0.00243709 0.00418061
7.501 0.00238628 0.00414454
7.511 0.00233566 0.00410877
7.521 0.0022852 0.0040733
7.531 0.00223491 0.00403814
7.541 0.00218479 0.00400326
7.551 0.00213483 0.00396869
7.561 0.00208502 0.0039344
7.571 0.00203537 0.00390041
7.581 0.00198587 0.0038667
7.591 0.00193651 0.00383327
7.601 0.0018873 0.00380013
7.611 0.00183822 0.00376727
7.621 0.00178928 0.00373468
7.631 0.00174047 0.00370237
7.641 0.00169179 0.00367034
7.651 0.00164324 0.00363857
7.661 0.00159481 0.00360708
7.671 0.00154649 0.00357585
7.681 0.00149829 0.00354488
7.691 0.0014502 0.00351418
7.701 0.00140222 0.00348374
7.711 0.00135434 0.00345355
7.721 0.00130656 0.00342362
7.731 0.00125888 0.00339395
7.741 0.00121129 0.00336452
7.751 0.00116379 0.00333535
7.761 0.00111638 0.00330642
7.771 0.00106905 0.00327774
7.781 0.0010218 0.0032493
7.791 0.000974624 0.00322111
7.801 0.000927522 0.00319315
7.811 0.00088049 0.00316543
7.821 0.000833522 0.00313794
7.831 0.000786617 0.00311069
7.841 0.00073977 0.00308367
7.851 0.000692979 0.00305688
7.861 0.000646239 0.00303032
7.871 0.000599547 0.00300399
7.881 0.0005529 0.00297788
7.891 0.000506294 0.00295199
7.901 0.000459726 0.00292632
7.911 0.000413193 0.00290087
7.921 0.00036669 0.00287563
7.931 0.000320214 0.00285061
7.941 0.000273763 0.00282581
7.951 0.000227332 0.00280121
7.961 0.000180918 0.00277683
7.971 0.000134518 0.00275265
7.981 8.81273e-05 0.00272868
7.991 4.17436e-05 0.00270492
