<?xml version="1.0" encoding="utf-8"  standalone="no"?>
<svg 
 width="600" height="480"
 viewBox="0 0 600 480"
 xmlns="http://www.w3.org/2000/svg"
 xmlns:xlink="http://www.w3.org/1999/xlink"
>

<title>Gnuplot</title>
<desc>Produced by GNUPLOT 5.2 patchlevel 2 </desc>

<g id="gnuplot_canvas">

<rect x="0" y="0" width="600" height="480" fill="#ffffff"/>
<defs>

	<circle id='gpDot' r='0.5' stroke-width='0.5'/>
	<path id='gpPt0' stroke-width='0.222' stroke='currentColor' d='M-1,0 h2 M0,-1 v2'/>
	<path id='gpPt1' stroke-width='0.222' stroke='currentColor' d='M-1,-1 L1,1 M1,-1 L-1,1'/>
	<path id='gpPt2' stroke-width='0.222' stroke='currentColor' d='M-1,0 L1,0 M0,-1 L0,1 M-1,-1 L1,1 M-1,1 L1,-1'/>
	<rect id='gpPt3' stroke-width='0.222' stroke='currentColor' x='-1' y='-1' width='2' height='2'/>
	<rect id='gpPt4' stroke-width='0.222' stroke='currentColor' fill='currentColor' x='-1' y='-1' width='2' height='2'/>
	<circle id='gpPt5' stroke-width='0.222' stroke='currentColor' cx='0' cy='0' r='1'/>
	<use xlink:href='#gpPt5' id='gpPt6' fill='currentColor' stroke='none'/>
	<path id='gpPt7' stroke-width='0.222' stroke='currentColor' d='M0,-1.33 L-1.33,0.67 L1.33,0.67 z'/>
	<use xlink:href='#gpPt7' id='gpPt8' fill='currentColor' stroke='none'/>
	<use xlink:href='#gpPt7' id='gpPt9' stroke='currentColor' transform='rotate(180)'/>
	<use xlink:href='#gpPt9' id='gpPt10' fill='currentColor' stroke='none'/>
	<use xlink:href='#gpPt3' id='gpPt11' stroke='currentColor' transform='rotate(45)'/>
	<use xlink:href='#gpPt11' id='gpPt12' fill='currentColor' stroke='none'/>
	<path id='gpPt13' stroke-width='0.222' stroke='currentColor' d='M0,1.330 L1.265,0.411 L0.782,-1.067 L-0.782,-1.076 L-1.265,0.411 z'/>
	<use xlink:href='#gpPt13' id='gpPt14' fill='currentColor' stroke='none'/>
	<filter id='textbox' filterUnits='objectBoundingBox' x='0' y='0' height='1' width='1'>
	  <feFlood flood-color='#FFFFFF' flood-opacity='1' result='bgnd'/>
	  <feComposite in='SourceGraphic' in2='bgnd' operator='atop'/>
	</filter>
	<filter id='greybox' filterUnits='objectBoundingBox' x='0' y='0' height='1' width='1'>
	  <feFlood flood-color='lightgrey' flood-opacity='1' result='grey'/>
	  <feComposite in='SourceGraphic' in2='grey' operator='atop'/>
	</filter>
</defs>
<g fill="none" color="#FFFFFF" stroke="currentColor" stroke-width="1.00" stroke-linecap="butt" stroke-linejoin="miter">
</g>
<g fill="none" color="black" stroke="currentColor" stroke-width="1.00" stroke-linecap="butt" stroke-linejoin="miter">
</g>
<g fill="none" color="black" stroke="black" stroke-width="0.50" stroke-linecap="butt" stroke-linejoin="miter">
</g>
<g fill="none" color="gray" stroke="currentColor" stroke-width="0.50" stroke-linecap="butt" stroke-linejoin="miter">
	<path stroke='gray' stroke-dasharray='2,4' class="gridline"  d='M63.6,422.4 L575.0,422.4  '/></g>
<g fill="none" color="gray" stroke="gray" stroke-width="1.00" stroke-linecap="butt" stroke-linejoin="miter">
</g>
<g fill="none" color="black" stroke="currentColor" stroke-width="1.00" stroke-linecap="butt" stroke-linejoin="miter">
	<path stroke='black'  d='M63.6,422.4 L72.6,422.4 M575.0,422.4 L566.0,422.4  '/>	<g transform="translate(55.3,426.3)" stroke="none" fill="black" font-family="Arial" font-size="12.00"  text-anchor="end">
		<text><tspan font-family="Arial" >-20</tspan></text>
	</g>
</g>
<g fill="none" color="black" stroke="currentColor" stroke-width="1.00" stroke-linecap="butt" stroke-linejoin="miter">
</g>
<g fill="none" color="black" stroke="black" stroke-width="0.50" stroke-linecap="butt" stroke-linejoin="miter">
</g>
<g fill="none" color="gray" stroke="currentColor" stroke-width="0.50" stroke-linecap="butt" stroke-linejoin="miter">
	<path stroke='gray' stroke-dasharray='2,4' class="gridline"  d='M63.6,355.0 L308.7,355.0 M566.7,355.0 L575.0,355.0  '/></g>
<g fill="none" color="gray" stroke="gray" stroke-width="1.00" stroke-linecap="butt" stroke-linejoin="miter">
</g>
<g fill="none" color="black" stroke="currentColor" stroke-width="1.00" stroke-linecap="butt" stroke-linejoin="miter">
	<path stroke='black'  d='M63.6,355.0 L72.6,355.0 M575.0,355.0 L566.0,355.0  '/>	<g transform="translate(55.3,358.9)" stroke="none" fill="black" font-family="Arial" font-size="12.00"  text-anchor="end">
		<text><tspan font-family="Arial" >-15</tspan></text>
	</g>
</g>
<g fill="none" color="black" stroke="currentColor" stroke-width="1.00" stroke-linecap="butt" stroke-linejoin="miter">
</g>
<g fill="none" color="black" stroke="black" stroke-width="0.50" stroke-linecap="butt" stroke-linejoin="miter">
</g>
<g fill="none" color="gray" stroke="currentColor" stroke-width="0.50" stroke-linecap="butt" stroke-linejoin="miter">
	<path stroke='gray' stroke-dasharray='2,4' class="gridline"  d='M63.6,287.6 L575.0,287.6  '/></g>
<g fill="none" color="gray" stroke="gray" stroke-width="1.00" stroke-linecap="butt" stroke-linejoin="miter">
</g>
<g fill="none" color="black" stroke="currentColor" stroke-width="1.00" stroke-linecap="butt" stroke-linejoin="miter">
	<path stroke='black'  d='M63.6,287.6 L72.6,287.6 M575.0,287.6 L566.0,287.6  '/>	<g transform="translate(55.3,291.5)" stroke="none" fill="black" font-family="Arial" font-size="12.00"  text-anchor="end">
		<text><tspan font-family="Arial" >-10</tspan></text>
	</g>
</g>
<g fill="none" color="black" stroke="currentColor" stroke-width="1.00" stroke-linecap="butt" stroke-linejoin="miter">
</g>
<g fill="none" color="black" stroke="black" stroke-width="0.50" stroke-linecap="butt" stroke-linejoin="miter">
</g>
<g fill="none" color="gray" stroke="currentColor" stroke-width="0.50" stroke-linecap="butt" stroke-linejoin="miter">
	<path stroke='gray' stroke-dasharray='2,4' class="gridline"  d='M63.6,220.2 L575.0,220.2  '/></g>
<g fill="none" color="gray" stroke="gray" stroke-width="1.00" stroke-linecap="butt" stroke-linejoin="miter">
</g>
<g fill="none" color="black" stroke="currentColor" stroke-width="1.00" stroke-linecap="butt" stroke-linejoin="miter">
	<path stroke='black'  d='M63.6,220.2 L72.6,220.2 M575.0,220.2 L566.0,220.2  '/>	<g transform="translate(55.3,224.1)" stroke="none" fill="black" font-family="Arial" font-size="12.00"  text-anchor="end">
		<text><tspan font-family="Arial" >-5</tspan></text>
	</g>
</g>
<g fill="none" color="black" stroke="currentColor" stroke-width="1.00" stroke-linecap="butt" stroke-linejoin="miter">
</g>
<g fill="none" color="black" stroke="black" stroke-width="0.50" stroke-linecap="butt" stroke-linejoin="miter">
</g>
<g fill="none" color="gray" stroke="currentColor" stroke-width="0.50" stroke-linecap="butt" stroke-linejoin="miter">
	<path stroke='gray' stroke-dasharray='2,4' class="gridline"  d='M63.6,152.9 L575.0,152.9  '/></g>
<g fill="none" color="gray" stroke="gray" stroke-width="1.00" stroke-linecap="butt" stroke-linejoin="miter">
</g>
<g fill="none" color="black" stroke="currentColor" stroke-width="1.00" stroke-linecap="butt" stroke-linejoin="miter">
	<path stroke='black'  d='M63.6,152.9 L72.6,152.9 M575.0,152.9 L566.0,152.9  '/>	<g transform="translate(55.3,156.8)" stroke="none" fill="black" font-family="Arial" font-size="12.00"  text-anchor="end">
		<text><tspan font-family="Arial" > 0</tspan></text>
	</g>
</g>
<g fill="none" color="black" stroke="currentColor" stroke-width="1.00" stroke-linecap="butt" stroke-linejoin="miter">
</g>
<g fill="none" color="black" stroke="black" stroke-width="0.50" stroke-linecap="butt" stroke-linejoin="miter">
</g>
<g fill="none" color="gray" stroke="currentColor" stroke-width="0.50" stroke-linecap="butt" stroke-linejoin="miter">
	<path stroke='gray' stroke-dasharray='2,4' class="gridline"  d='M63.6,85.5 L575.0,85.5  '/></g>
<g fill="none" color="gray" stroke="gray" stroke-width="1.00" stroke-linecap="butt" stroke-linejoin="miter">
</g>
<g fill="none" color="black" stroke="currentColor" stroke-width="1.00" stroke-linecap="butt" stroke-linejoin="miter">
	<path stroke='black'  d='M63.6,85.5 L72.6,85.5 M575.0,85.5 L566.0,85.5  '/>	<g transform="translate(55.3,89.4)" stroke="none" fill="black" font-family="Arial" font-size="12.00"  text-anchor="end">
		<text><tspan font-family="Arial" > 5</tspan></text>
	</g>
</g>
<g fill="none" color="black" stroke="currentColor" stroke-width="1.00" stroke-linecap="butt" stroke-linejoin="miter">
</g>
<g fill="none" color="black" stroke="black" stroke-width="0.50" stroke-linecap="butt" stroke-linejoin="miter">
</g>
<g fill="none" color="gray" stroke="currentColor" stroke-width="0.50" stroke-linecap="butt" stroke-linejoin="miter">
	<path stroke='gray' stroke-dasharray='2,4' class="gridline"  d='M63.6,18.1 L575.0,18.1  '/></g>
<g fill="none" color="gray" stroke="gray" stroke-width="1.00" stroke-linecap="butt" stroke-linejoin="miter">
</g>
<g fill="none" color="black" stroke="currentColor" stroke-width="1.00" stroke-linecap="butt" stroke-linejoin="miter">
	<path stroke='black'  d='M63.6,18.1 L72.6,18.1 M575.0,18.1 L566.0,18.1  '/>	<g transform="translate(55.3,22.0)" stroke="none" fill="black" font-family="Arial" font-size="12.00"  text-anchor="end">
		<text><tspan font-family="Arial" > 10</tspan></text>
	</g>
</g>
<g fill="none" color="black" stroke="currentColor" stroke-width="1.00" stroke-linecap="butt" stroke-linejoin="miter">
</g>
<g fill="none" color="black" stroke="black" stroke-width="0.50" stroke-linecap="butt" stroke-linejoin="miter">
</g>
<g fill="none" color="gray" stroke="currentColor" stroke-width="0.50" stroke-linecap="butt" stroke-linejoin="miter">
	<path stroke='gray' stroke-dasharray='2,4' class="gridline"  d='M63.6,422.4 L63.6,18.1  '/></g>
<g fill="none" color="gray" stroke="gray" stroke-width="1.00" stroke-linecap="butt" stroke-linejoin="miter">
</g>
<g fill="none" color="black" stroke="currentColor" stroke-width="1.00" stroke-linecap="butt" stroke-linejoin="miter">
	<path stroke='black'  d='M63.6,422.4 L63.6,413.4 M63.6,18.1 L63.6,27.1  '/>	<g transform="translate(63.6,444.3)" stroke="none" fill="black" font-family="Arial" font-size="12.00"  text-anchor="middle">
		<text><tspan font-family="Arial" > 0</tspan></text>
	</g>
</g>
<g fill="none" color="black" stroke="currentColor" stroke-width="1.00" stroke-linecap="butt" stroke-linejoin="miter">
</g>
<g fill="none" color="black" stroke="black" stroke-width="0.50" stroke-linecap="butt" stroke-linejoin="miter">
</g>
<g fill="none" color="gray" stroke="currentColor" stroke-width="0.50" stroke-linecap="butt" stroke-linejoin="miter">
	<path stroke='gray' stroke-dasharray='2,4' class="gridline"  d='M165.9,422.4 L165.9,18.1  '/></g>
<g fill="none" color="gray" stroke="gray" stroke-width="1.00" stroke-linecap="butt" stroke-linejoin="miter">
</g>
<g fill="none" color="black" stroke="currentColor" stroke-width="1.00" stroke-linecap="butt" stroke-linejoin="miter">
	<path stroke='black'  d='M165.9,422.4 L165.9,413.4 M165.9,18.1 L165.9,27.1  '/>	<g transform="translate(165.9,444.3)" stroke="none" fill="black" font-family="Arial" font-size="12.00"  text-anchor="middle">
		<text><tspan font-family="Arial" > 2</tspan></text>
	</g>
</g>
<g fill="none" color="black" stroke="currentColor" stroke-width="1.00" stroke-linecap="butt" stroke-linejoin="miter">
</g>
<g fill="none" color="black" stroke="black" stroke-width="0.50" stroke-linecap="butt" stroke-linejoin="miter">
</g>
<g fill="none" color="gray" stroke="currentColor" stroke-width="0.50" stroke-linecap="butt" stroke-linejoin="miter">
	<path stroke='gray' stroke-dasharray='2,4' class="gridline"  d='M268.2,422.4 L268.2,18.1  '/></g>
<g fill="none" color="gray" stroke="gray" stroke-width="1.00" stroke-linecap="butt" stroke-linejoin="miter">
</g>
<g fill="none" color="black" stroke="currentColor" stroke-width="1.00" stroke-linecap="butt" stroke-linejoin="miter">
	<path stroke='black'  d='M268.2,422.4 L268.2,413.4 M268.2,18.1 L268.2,27.1  '/>	<g transform="translate(268.2,444.3)" stroke="none" fill="black" font-family="Arial" font-size="12.00"  text-anchor="middle">
		<text><tspan font-family="Arial" > 4</tspan></text>
	</g>
</g>
<g fill="none" color="black" stroke="currentColor" stroke-width="1.00" stroke-linecap="butt" stroke-linejoin="miter">
</g>
<g fill="none" color="black" stroke="black" stroke-width="0.50" stroke-linecap="butt" stroke-linejoin="miter">
</g>
<g fill="none" color="gray" stroke="currentColor" stroke-width="0.50" stroke-linecap="butt" stroke-linejoin="miter">
	<path stroke='gray' stroke-dasharray='2,4' class="gridline"  d='M370.4,422.4 L370.4,413.4 M370.4,341.4 L370.4,18.1  '/></g>
<g fill="none" color="gray" stroke="gray" stroke-width="1.00" stroke-linecap="butt" stroke-linejoin="miter">
</g>
<g fill="none" color="black" stroke="currentColor" stroke-width="1.00" stroke-linecap="butt" stroke-linejoin="miter">
	<path stroke='black'  d='M370.4,422.4 L370.4,413.4 M370.4,18.1 L370.4,27.1  '/>	<g transform="translate(370.4,444.3)" stroke="none" fill="black" font-family="Arial" font-size="12.00"  text-anchor="middle">
		<text><tspan font-family="Arial" > 6</tspan></text>
	</g>
</g>
<g fill="none" color="black" stroke="currentColor" stroke-width="1.00" stroke-linecap="butt" stroke-linejoin="miter">
</g>
<g fill="none" color="black" stroke="black" stroke-width="0.50" stroke-linecap="butt" stroke-linejoin="miter">
</g>
<g fill="none" color="gray" stroke="currentColor" stroke-width="0.50" stroke-linecap="butt" stroke-linejoin="miter">
	<path stroke='gray' stroke-dasharray='2,4' class="gridline"  d='M472.7,422.4 L472.7,413.4 M472.7,341.4 L472.7,18.1  '/></g>
<g fill="none" color="gray" stroke="gray" stroke-width="1.00" stroke-linecap="butt" stroke-linejoin="miter">
</g>
<g fill="none" color="black" stroke="currentColor" stroke-width="1.00" stroke-linecap="butt" stroke-linejoin="miter">
	<path stroke='black'  d='M472.7,422.4 L472.7,413.4 M472.7,18.1 L472.7,27.1  '/>	<g transform="translate(472.7,444.3)" stroke="none" fill="black" font-family="Arial" font-size="12.00"  text-anchor="middle">
		<text><tspan font-family="Arial" > 8</tspan></text>
	</g>
</g>
<g fill="none" color="black" stroke="currentColor" stroke-width="1.00" stroke-linecap="butt" stroke-linejoin="miter">
</g>
<g fill="none" color="black" stroke="black" stroke-width="0.50" stroke-linecap="butt" stroke-linejoin="miter">
</g>
<g fill="none" color="gray" stroke="currentColor" stroke-width="0.50" stroke-linecap="butt" stroke-linejoin="miter">
	<path stroke='gray' stroke-dasharray='2,4' class="gridline"  d='M575.0,422.4 L575.0,18.1  '/></g>
<g fill="none" color="gray" stroke="gray" stroke-width="1.00" stroke-linecap="butt" stroke-linejoin="miter">
</g>
<g fill="none" color="black" stroke="currentColor" stroke-width="1.00" stroke-linecap="butt" stroke-linejoin="miter">
	<path stroke='black'  d='M575.0,422.4 L575.0,413.4 M575.0,18.1 L575.0,27.1  '/>	<g transform="translate(575.0,444.3)" stroke="none" fill="black" font-family="Arial" font-size="12.00"  text-anchor="middle">
		<text><tspan font-family="Arial" > 10</tspan></text>
	</g>
</g>
<g fill="none" color="black" stroke="currentColor" stroke-width="1.00" stroke-linecap="butt" stroke-linejoin="miter">
</g>
<g fill="none" color="black" stroke="currentColor" stroke-width="1.00" stroke-linecap="butt" stroke-linejoin="miter">
	<path stroke='black'  d='M63.6,18.1 L63.6,422.4 L575.0,422.4 L575.0,18.1 L63.6,18.1 Z  '/></g>
<g fill="none" color="black" stroke="currentColor" stroke-width="1.00" stroke-linecap="butt" stroke-linejoin="miter">
	<g transform="translate(16.3,220.3) rotate(270)" stroke="none" fill="black" font-family="Arial" font-size="12.00"  text-anchor="middle">
		<text><tspan font-family="Arial" >y</tspan></text>
	</g>
</g>
<g fill="none" color="black" stroke="currentColor" stroke-width="1.00" stroke-linecap="butt" stroke-linejoin="miter">
	<g transform="translate(319.3,471.3)" stroke="none" fill="black" font-family="Arial" font-size="12.00"  text-anchor="middle">
		<text><tspan font-family="Arial" >x</tspan></text>
	</g>
</g>
<g fill="none" color="black" stroke="currentColor" stroke-width="1.00" stroke-linecap="butt" stroke-linejoin="miter">
</g>
	<g id="gnuplot_plot_1" ><title>Data Points</title>
<g fill="none" color="black" stroke="currentColor" stroke-width="1.00" stroke-linecap="butt" stroke-linejoin="miter">
	<g transform="translate(507.9,354.3)" stroke="none" fill="black" font-family="Arial" font-size="12.00"  text-anchor="end">
		<text><tspan font-family="Arial" >Data Points</tspan></text>
	</g>
</g>
<g fill="none" color="black" stroke="currentColor" stroke-width="1.00" stroke-linecap="butt" stroke-linejoin="miter">
	<path stroke='rgb(148,   0, 211)'  d='M516.2,350.4 L558.4,350.4 M516.2,345.9 L516.2,354.9 M558.4,345.9 L558.4,354.9 M68.7,375.8 L68.7,347.7
		M64.2,375.8 L73.2,375.8 M64.2,347.7 L73.2,347.7 M131.6,156.6 L131.6,140.5 M127.1,156.6 L136.1,156.6
		M127.1,140.5 L136.1,140.5 M194.0,133.1 L194.0,106.6 M189.5,133.1 L198.5,133.1 M189.5,106.6 L198.5,106.6
		M256.9,129.1 L256.9,102.6 M252.4,129.1 L261.4,129.1 M252.4,102.6 L261.4,102.6 M319.3,135.7 L319.3,108.8
		M314.8,135.7 L323.8,135.7 M314.8,108.8 L323.8,108.8 M381.7,149.6 L381.7,119.7 M377.2,149.6 L386.2,149.6
		M377.2,119.7 L386.2,119.7 M444.6,156.1 L444.6,145.4 M440.1,156.1 L449.1,156.1 M440.1,145.4 L449.1,145.4
		M507.5,176.7 L507.5,162.2 M503.0,176.7 L512.0,176.7 M503.0,162.2 L512.0,162.2 M569.9,203.0 L569.9,176.9
		M565.4,203.0 L574.4,203.0 M565.4,176.9 L574.4,176.9  '/>	<use xlink:href='#gpPt0' transform='translate(68.7,361.8) scale(4.50)' color='rgb(148,   0, 211)'/>
	<use xlink:href='#gpPt0' transform='translate(131.6,148.6) scale(4.50)' color='rgb(148,   0, 211)'/>
	<use xlink:href='#gpPt0' transform='translate(194.0,119.8) scale(4.50)' color='rgb(148,   0, 211)'/>
	<use xlink:href='#gpPt0' transform='translate(256.9,115.8) scale(4.50)' color='rgb(148,   0, 211)'/>
	<use xlink:href='#gpPt0' transform='translate(319.3,122.3) scale(4.50)' color='rgb(148,   0, 211)'/>
	<use xlink:href='#gpPt0' transform='translate(381.7,134.7) scale(4.50)' color='rgb(148,   0, 211)'/>
	<use xlink:href='#gpPt0' transform='translate(444.6,150.8) scale(4.50)' color='rgb(148,   0, 211)'/>
	<use xlink:href='#gpPt0' transform='translate(507.5,169.4) scale(4.50)' color='rgb(148,   0, 211)'/>
	<use xlink:href='#gpPt0' transform='translate(569.9,189.9) scale(4.50)' color='rgb(148,   0, 211)'/>
	<use xlink:href='#gpPt0' transform='translate(537.3,350.4) scale(4.50)' color='rgb(148,   0, 211)'/>
</g>
	</g>
	<g id="gnuplot_plot_2" ><title>2nd Order Polynomial Fit</title>
<g fill="none" color="black" stroke="currentColor" stroke-width="1.00" stroke-linecap="butt" stroke-linejoin="miter">
	<g transform="translate(507.9,372.3)" stroke="none" fill="black" font-family="Arial" font-size="12.00"  text-anchor="end">
		<text><tspan font-family="Arial" >2nd Order Polynomial Fit</tspan></text>
	</g>
</g>
<g fill="none" color="black" stroke="currentColor" stroke-width="1.00" stroke-linecap="butt" stroke-linejoin="miter">
	<path stroke='rgb(  0, 158, 115)'  d='M516.2,368.4 L558.4,368.4 M63.6,256.0 L68.7,250.6 L73.8,245.2 L78.9,239.9 L84.1,234.7 L89.2,229.6
		L94.3,224.7 L99.4,219.8 L104.5,215.0 L109.6,210.4 L114.7,205.8 L119.9,201.4 L125.0,197.1 L130.1,192.9
		L135.2,188.7 L140.3,184.7 L145.4,180.8 L150.5,177.0 L155.7,173.3 L160.8,169.7 L165.9,166.3 L171.0,162.9
		L176.1,159.6 L181.2,156.5 L186.3,153.4 L191.5,150.4 L196.6,147.6 L201.7,144.9 L206.8,142.2 L211.9,139.7
		L217.0,137.3 L222.1,135.0 L227.2,132.8 L232.4,130.7 L237.5,128.7 L242.6,126.8 L247.7,125.0 L252.8,123.3
		L257.9,121.8 L263.0,120.3 L268.2,118.9 L273.3,117.7 L278.4,116.5 L283.5,115.5 L288.6,114.6 L293.7,113.8
		L298.8,113.0 L304.0,112.4 L309.1,111.9 L314.2,111.5 L319.3,111.2 L324.4,111.0 L329.5,110.9 L334.6,111.0
		L339.8,111.1 L344.9,111.3 L350.0,111.7 L355.1,112.1 L360.2,112.7 L365.3,113.3 L370.4,114.1 L375.6,115.0
		L380.7,116.0 L385.8,117.0 L390.9,118.2 L396.0,119.5 L401.1,120.9 L406.2,122.4 L411.4,124.1 L416.5,125.8
		L421.6,127.6 L426.7,129.5 L431.8,131.6 L436.9,133.7 L442.0,136.0 L447.2,138.4 L452.3,140.8 L457.4,143.4
		L462.5,146.1 L467.6,148.9 L472.7,151.7 L477.8,154.7 L482.9,157.8 L488.1,161.1 L493.2,164.4 L498.3,167.8
		L503.4,171.3 L508.5,175.0 L513.6,178.7 L518.7,182.5 L523.9,186.5 L529.0,190.6 L534.1,194.7 L539.2,199.0
		L544.3,203.4 L549.4,207.8 L554.5,212.4 L559.7,217.1 L564.8,221.9 L569.9,226.8 L575.0,231.9  '/></g>
	</g>
	<g id="gnuplot_plot_3" ><title>Upper Bound</title>
<g fill="none" color="black" stroke="currentColor" stroke-width="1.00" stroke-linecap="butt" stroke-linejoin="miter">
	<g transform="translate(507.9,390.3)" stroke="none" fill="black" font-family="Arial" font-size="12.00"  text-anchor="end">
		<text><tspan font-family="Arial" >Upper Bound</tspan></text>
	</g>
</g>
<g fill="none" color="black" stroke="currentColor" stroke-width="1.00" stroke-linecap="butt" stroke-linejoin="miter">
	<path stroke='rgb( 86, 180, 233)'  d='M516.2,386.4 L558.4,386.4 M63.6,246.4 L68.7,240.4 L73.8,234.5 L78.9,228.8 L84.1,223.1 L89.2,217.5
		L94.3,212.0 L99.4,206.6 L104.5,201.3 L109.6,196.1 L114.7,191.0 L119.9,185.9 L125.0,181.0 L130.1,176.2
		L135.2,171.5 L140.3,166.9 L145.4,162.3 L150.5,157.9 L155.7,153.6 L160.8,149.3 L165.9,145.2 L171.0,141.1
		L176.1,137.2 L181.2,133.4 L186.3,129.6 L191.5,125.9 L196.6,122.4 L201.7,118.9 L206.8,115.5 L211.9,112.3
		L217.0,109.1 L222.1,106.0 L227.2,103.0 L232.4,100.2 L237.5,97.4 L242.6,94.7 L247.7,92.1 L252.8,89.6
		L257.9,87.2 L263.0,84.9 L268.2,82.7 L273.3,80.6 L278.4,78.6 L283.5,76.7 L288.6,74.8 L293.7,73.1
		L298.8,71.5 L304.0,70.0 L309.1,68.5 L314.2,67.2 L319.3,65.9 L324.4,64.8 L329.5,63.8 L334.6,62.8
		L339.8,62.0 L344.9,61.2 L350.0,60.5 L355.1,60.0 L360.2,59.5 L365.3,59.2 L370.4,58.9 L375.6,58.7
		L380.7,58.6 L385.8,58.7 L390.9,58.8 L396.0,59.0 L401.1,59.3 L406.2,59.7 L411.4,60.2 L416.5,60.8
		L421.6,61.5 L426.7,62.3 L431.8,63.2 L436.9,64.2 L442.0,65.2 L447.2,66.4 L452.3,67.7 L457.4,69.1
		L462.5,70.5 L467.6,72.1 L472.7,73.8 L477.8,75.5 L482.9,77.4 L488.1,79.4 L493.2,81.4 L498.3,83.6
		L503.4,85.8 L508.5,88.1 L513.6,90.6 L518.7,93.1 L523.9,95.7 L529.0,98.5 L534.1,101.3 L539.2,104.2
		L544.3,107.2 L549.4,110.3 L554.5,113.6 L559.7,116.9 L564.8,120.3 L569.9,123.8 L575.0,127.4  '/></g>
	</g>
	<g id="gnuplot_plot_4" ><title>Lower Bound</title>
<g fill="none" color="black" stroke="currentColor" stroke-width="1.00" stroke-linecap="butt" stroke-linejoin="miter">
	<g transform="translate(507.9,408.3)" stroke="none" fill="black" font-family="Arial" font-size="12.00"  text-anchor="end">
		<text><tspan font-family="Arial" >Lower Bound</tspan></text>
	</g>
</g>
<g fill="none" color="black" stroke="currentColor" stroke-width="1.00" stroke-linecap="butt" stroke-linejoin="miter">
	<path stroke='rgb(230, 159,   0)'  d='M516.2,404.4 L558.4,404.4 M63.6,265.7 L68.7,260.7 L73.8,255.8 L78.9,251.0 L84.1,246.3 L89.2,241.8
		L94.3,237.3 L99.4,233.0 L104.5,228.8 L109.6,224.7 L114.7,220.7 L119.9,216.9 L125.0,213.1 L130.1,209.5
		L135.2,206.0 L140.3,202.6 L145.4,199.3 L150.5,196.1 L155.7,193.1 L160.8,190.1 L165.9,187.3 L171.0,184.6
		L176.1,182.0 L181.2,179.6 L186.3,177.2 L191.5,175.0 L196.6,172.8 L201.7,170.8 L206.8,168.9 L211.9,167.1
		L217.0,165.5 L222.1,163.9 L227.2,162.5 L232.4,161.2 L237.5,160.0 L242.6,158.9 L247.7,157.9 L252.8,157.1
		L257.9,156.3 L263.0,155.7 L268.2,155.2 L273.3,154.8 L278.4,154.5 L283.5,154.4 L288.6,154.3 L293.7,154.4
		L298.8,154.6 L304.0,154.9 L309.1,155.3 L314.2,155.8 L319.3,156.5 L324.4,157.2 L329.5,158.1 L334.6,159.1
		L339.8,160.2 L344.9,161.5 L350.0,162.8 L355.1,164.3 L360.2,165.8 L365.3,167.5 L370.4,169.3 L375.6,171.2
		L380.7,173.3 L385.8,175.4 L390.9,177.7 L396.0,180.1 L401.1,182.6 L406.2,185.2 L411.4,187.9 L416.5,190.8
		L421.6,193.7 L426.7,196.8 L431.8,200.0 L436.9,203.3 L442.0,206.7 L447.2,210.3 L452.3,213.9 L457.4,217.7
		L462.5,221.6 L467.6,225.6 L472.7,229.7 L477.8,233.9 L482.9,238.3 L488.1,242.8 L493.2,247.3 L498.3,252.0
		L503.4,256.8 L508.5,261.8 L513.6,266.8 L518.7,272.0 L523.9,277.2 L529.0,282.6 L534.1,288.1 L539.2,293.8
		L544.3,299.5 L549.4,305.3 L554.5,311.3 L559.7,317.4 L564.8,323.6 L569.9,329.9 L575.0,336.3  '/></g>
	</g>
<g fill="none" color="#FFFFFF" stroke="rgb(230, 159,   0)" stroke-width="2.00" stroke-linecap="butt" stroke-linejoin="miter">
</g>
<g fill="none" color="black" stroke="currentColor" stroke-width="2.00" stroke-linecap="butt" stroke-linejoin="miter">
</g>
<g fill="none" color="black" stroke="black" stroke-width="1.00" stroke-linecap="butt" stroke-linejoin="miter">
</g>
<g fill="none" color="black" stroke="currentColor" stroke-width="1.00" stroke-linecap="butt" stroke-linejoin="miter">
	<path stroke='black'  d='M63.6,18.1 L63.6,422.4 L575.0,422.4 L575.0,18.1 L63.6,18.1 Z  '/></g>
<g fill="none" color="black" stroke="currentColor" stroke-width="1.00" stroke-linecap="butt" stroke-linejoin="miter">
</g>
</g>
</svg>

