\relax 
\newlabel{erf}{{1}{1}}
\@writefile{lof}{\contentsline {figure}{\numberline {1}{\ignorespaces The figure shows the error function from the math.h plotted as a solid line and the estimate of the error function obtained by integrating according to equation 1\hbox {}}}{1}}
