<?xml version="1.0" encoding="utf-8"  standalone="no"?>
<svg 
 width="600" height="480"
 viewBox="0 0 600 480"
 xmlns="http://www.w3.org/2000/svg"
 xmlns:xlink="http://www.w3.org/1999/xlink"
>

<title>Gnuplot</title>
<desc>Produced by GNUPLOT 5.2 patchlevel 2 </desc>

<g id="gnuplot_canvas">

<rect x="0" y="0" width="600" height="480" fill="none"/>
<defs>

	<circle id='gpDot' r='0.5' stroke-width='0.5'/>
	<path id='gpPt0' stroke-width='0.222' stroke='currentColor' d='M-1,0 h2 M0,-1 v2'/>
	<path id='gpPt1' stroke-width='0.222' stroke='currentColor' d='M-1,-1 L1,1 M1,-1 L-1,1'/>
	<path id='gpPt2' stroke-width='0.222' stroke='currentColor' d='M-1,0 L1,0 M0,-1 L0,1 M-1,-1 L1,1 M-1,1 L1,-1'/>
	<rect id='gpPt3' stroke-width='0.222' stroke='currentColor' x='-1' y='-1' width='2' height='2'/>
	<rect id='gpPt4' stroke-width='0.222' stroke='currentColor' fill='currentColor' x='-1' y='-1' width='2' height='2'/>
	<circle id='gpPt5' stroke-width='0.222' stroke='currentColor' cx='0' cy='0' r='1'/>
	<use xlink:href='#gpPt5' id='gpPt6' fill='currentColor' stroke='none'/>
	<path id='gpPt7' stroke-width='0.222' stroke='currentColor' d='M0,-1.33 L-1.33,0.67 L1.33,0.67 z'/>
	<use xlink:href='#gpPt7' id='gpPt8' fill='currentColor' stroke='none'/>
	<use xlink:href='#gpPt7' id='gpPt9' stroke='currentColor' transform='rotate(180)'/>
	<use xlink:href='#gpPt9' id='gpPt10' fill='currentColor' stroke='none'/>
	<use xlink:href='#gpPt3' id='gpPt11' stroke='currentColor' transform='rotate(45)'/>
	<use xlink:href='#gpPt11' id='gpPt12' fill='currentColor' stroke='none'/>
	<path id='gpPt13' stroke-width='0.222' stroke='currentColor' d='M0,1.330 L1.265,0.411 L0.782,-1.067 L-0.782,-1.076 L-1.265,0.411 z'/>
	<use xlink:href='#gpPt13' id='gpPt14' fill='currentColor' stroke='none'/>
	<filter id='textbox' filterUnits='objectBoundingBox' x='0' y='0' height='1' width='1'>
	  <feFlood flood-color='white' flood-opacity='1' result='bgnd'/>
	  <feComposite in='SourceGraphic' in2='bgnd' operator='atop'/>
	</filter>
	<filter id='greybox' filterUnits='objectBoundingBox' x='0' y='0' height='1' width='1'>
	  <feFlood flood-color='lightgrey' flood-opacity='1' result='grey'/>
	  <feComposite in='SourceGraphic' in2='grey' operator='atop'/>
	</filter>
</defs>
<g fill="none" color="white" stroke="currentColor" stroke-width="1.00" stroke-linecap="butt" stroke-linejoin="miter">
</g>
<g fill="none" color="black" stroke="currentColor" stroke-width="1.00" stroke-linecap="butt" stroke-linejoin="miter">
	<path stroke='black'  d='M55.3,382.0 L64.3,382.0 M575.0,382.0 L566.0,382.0  '/>	<g transform="translate(47.0,385.9)" stroke="none" fill="black" font-family="Arial" font-size="12.00"  text-anchor="end">
		<text><tspan font-family="Arial" >-4</tspan></text>
	</g>
</g>
<g fill="none" color="black" stroke="currentColor" stroke-width="1.00" stroke-linecap="butt" stroke-linejoin="miter">
	<path stroke='black'  d='M55.3,301.1 L64.3,301.1 M575.0,301.1 L566.0,301.1  '/>	<g transform="translate(47.0,305.0)" stroke="none" fill="black" font-family="Arial" font-size="12.00"  text-anchor="end">
		<text><tspan font-family="Arial" >-2</tspan></text>
	</g>
</g>
<g fill="none" color="black" stroke="currentColor" stroke-width="1.00" stroke-linecap="butt" stroke-linejoin="miter">
	<path stroke='black'  d='M55.3,220.2 L64.3,220.2 M575.0,220.2 L566.0,220.2  '/>	<g transform="translate(47.0,224.1)" stroke="none" fill="black" font-family="Arial" font-size="12.00"  text-anchor="end">
		<text><tspan font-family="Arial" > 0</tspan></text>
	</g>
</g>
<g fill="none" color="black" stroke="currentColor" stroke-width="1.00" stroke-linecap="butt" stroke-linejoin="miter">
	<path stroke='black'  d='M55.3,139.4 L64.3,139.4 M575.0,139.4 L566.0,139.4  '/>	<g transform="translate(47.0,143.3)" stroke="none" fill="black" font-family="Arial" font-size="12.00"  text-anchor="end">
		<text><tspan font-family="Arial" > 2</tspan></text>
	</g>
</g>
<g fill="none" color="black" stroke="currentColor" stroke-width="1.00" stroke-linecap="butt" stroke-linejoin="miter">
	<path stroke='black'  d='M55.3,58.5 L64.3,58.5 M575.0,58.5 L566.0,58.5  '/>	<g transform="translate(47.0,62.4)" stroke="none" fill="black" font-family="Arial" font-size="12.00"  text-anchor="end">
		<text><tspan font-family="Arial" > 4</tspan></text>
	</g>
</g>
<g fill="none" color="black" stroke="currentColor" stroke-width="1.00" stroke-linecap="butt" stroke-linejoin="miter">
	<path stroke='black'  d='M55.3,422.4 L55.3,413.4 M55.3,18.1 L55.3,27.1  '/>	<g transform="translate(55.3,444.3)" stroke="none" fill="black" font-family="Arial" font-size="12.00"  text-anchor="middle">
		<text><tspan font-family="Arial" >-15</tspan></text>
	</g>
</g>
<g fill="none" color="black" stroke="currentColor" stroke-width="1.00" stroke-linecap="butt" stroke-linejoin="miter">
	<path stroke='black'  d='M185.2,422.4 L185.2,413.4 M185.2,18.1 L185.2,27.1  '/>	<g transform="translate(185.2,444.3)" stroke="none" fill="black" font-family="Arial" font-size="12.00"  text-anchor="middle">
		<text><tspan font-family="Arial" >-10</tspan></text>
	</g>
</g>
<g fill="none" color="black" stroke="currentColor" stroke-width="1.00" stroke-linecap="butt" stroke-linejoin="miter">
	<path stroke='black'  d='M315.2,422.4 L315.2,413.4 M315.2,18.1 L315.2,27.1  '/>	<g transform="translate(315.2,444.3)" stroke="none" fill="black" font-family="Arial" font-size="12.00"  text-anchor="middle">
		<text><tspan font-family="Arial" >-5</tspan></text>
	</g>
</g>
<g fill="none" color="black" stroke="currentColor" stroke-width="1.00" stroke-linecap="butt" stroke-linejoin="miter">
	<path stroke='black'  d='M445.1,422.4 L445.1,413.4 M445.1,18.1 L445.1,27.1  '/>	<g transform="translate(445.1,444.3)" stroke="none" fill="black" font-family="Arial" font-size="12.00"  text-anchor="middle">
		<text><tspan font-family="Arial" > 0</tspan></text>
	</g>
</g>
<g fill="none" color="black" stroke="currentColor" stroke-width="1.00" stroke-linecap="butt" stroke-linejoin="miter">
	<path stroke='black'  d='M575.0,422.4 L575.0,413.4 M575.0,18.1 L575.0,27.1  '/>	<g transform="translate(575.0,444.3)" stroke="none" fill="black" font-family="Arial" font-size="12.00"  text-anchor="middle">
		<text><tspan font-family="Arial" > 5</tspan></text>
	</g>
</g>
<g fill="none" color="black" stroke="currentColor" stroke-width="1.00" stroke-linecap="butt" stroke-linejoin="miter">
</g>
<g fill="none" color="black" stroke="currentColor" stroke-width="1.00" stroke-linecap="butt" stroke-linejoin="miter">
	<path stroke='black'  d='M55.3,18.1 L55.3,422.4 L575.0,422.4 L575.0,18.1 L55.3,18.1 Z  '/></g>
<g fill="none" color="black" stroke="currentColor" stroke-width="1.00" stroke-linecap="butt" stroke-linejoin="miter">
	<g transform="translate(16.3,220.3) rotate(270)" stroke="none" fill="black" font-family="Arial" font-size="12.00"  text-anchor="middle">
		<text><tspan font-family="Arial" >y</tspan></text>
	</g>
</g>
<g fill="none" color="black" stroke="currentColor" stroke-width="1.00" stroke-linecap="butt" stroke-linejoin="miter">
	<g transform="translate(315.1,471.3)" stroke="none" fill="black" font-family="Arial" font-size="12.00"  text-anchor="middle">
		<text><tspan font-family="Arial" >x</tspan></text>
	</g>
</g>
<g fill="none" color="black" stroke="currentColor" stroke-width="1.00" stroke-linecap="butt" stroke-linejoin="miter">
</g>
	<g id="gnuplot_plot_1" ><title>Ai</title>
<g fill="none" color="black" stroke="currentColor" stroke-width="1.00" stroke-linecap="butt" stroke-linejoin="miter">
	<g transform="translate(71.9,40.0)" stroke="none" fill="black" font-family="Arial" font-size="12.00"  text-anchor="end">
		<text><tspan font-family="Arial" >A</tspan><tspan font-family="Arial"  font-size="9.6" dy="3.60px">i</tspan><tspan font-size="12.0" dy="-3.60"></tspan></text>
	</g>
</g>
<g fill="none" color="black" stroke="currentColor" stroke-width="1.00" stroke-linecap="butt" stroke-linejoin="miter">
	<path stroke='rgb(148,   0, 211)'  d='M80.2,36.1 L122.4,36.1 M55.3,209.0 L56.6,208.7 L57.9,208.8 L59.2,209.3 L60.5,210.2 L61.8,211.5
		L63.1,213.1 L64.4,215.0 L65.7,217.1 L67.0,219.3 L68.3,221.5 L69.6,223.7 L70.9,225.7 L72.2,227.6
		L73.5,229.2 L74.8,230.5 L76.1,231.4 L77.4,231.9 L78.7,232.0 L80.0,231.7 L81.3,231.0 L82.6,229.9
		L83.9,228.5 L85.2,226.8 L86.5,224.9 L87.8,222.8 L89.1,220.6 L90.4,218.4 L91.7,216.3 L93.0,214.3
		L94.3,212.5 L95.6,211.0 L96.9,209.8 L98.2,208.9 L99.5,208.4 L100.8,208.3 L102.1,208.6 L103.4,209.3
		L104.7,210.3 L106.0,211.7 L107.3,213.3 L108.6,215.2 L109.9,217.2 L111.2,219.3 L112.5,221.5 L113.8,223.6
		L115.1,225.6 L116.4,227.5 L117.7,229.1 L119.0,230.4 L120.3,231.4 L121.6,232.1 L122.9,232.4 L124.2,232.3
		L125.5,231.9 L126.8,231.1 L128.1,229.9 L129.4,228.5 L130.7,226.8 L132.0,225.0 L133.3,222.9 L134.6,220.8
		L135.9,218.7 L137.2,216.7 L138.5,214.7 L139.8,212.9 L141.1,211.3 L142.3,210.0 L143.6,209.0 L144.9,208.3
		L146.2,207.9 L147.5,207.9 L148.8,208.3 L150.1,208.9 L151.4,210.0 L152.7,211.3 L154.0,212.8 L155.3,214.6
		L156.6,216.5 L157.9,218.5 L159.2,220.6 L160.5,222.7 L161.8,224.7 L163.1,226.5 L164.4,228.2 L165.7,229.7
		L167.0,231.0 L168.3,231.9 L169.6,232.6 L170.9,232.9 L172.2,232.9 L173.5,232.5 L174.8,231.8 L176.1,230.9
		L177.4,229.6 L178.7,228.2 L180.0,226.5 L181.3,224.6 L182.6,222.7 L183.9,220.6 L185.2,218.6 L186.5,216.6
		L187.8,214.7 L189.1,213.0 L190.4,211.4 L191.7,210.0 L193.0,208.9 L194.3,208.1 L195.6,207.5 L196.9,207.3
		L198.2,207.3 L199.5,207.7 L200.8,208.4 L202.1,209.3 L203.4,210.5 L204.7,212.0 L206.0,213.6 L207.3,215.3
		L208.6,217.2 L209.9,219.2 L211.2,221.1 L212.5,223.1 L213.8,225.0 L215.1,226.8 L216.4,228.4 L217.7,229.9
		L219.0,231.1 L220.3,232.1 L221.6,232.9 L222.9,233.4 L224.2,233.6 L225.5,233.5 L226.8,233.2 L228.1,232.5
		L229.4,231.7 L230.7,230.5 L232.0,229.2 L233.3,227.7 L234.6,226.0 L235.9,224.2 L237.2,222.4 L238.5,220.5
		L239.8,218.6 L241.1,216.7 L242.4,214.9 L243.7,213.2 L245.0,211.6 L246.3,210.2 L247.6,209.0 L248.9,208.0
		L250.2,207.2 L251.5,206.7 L252.8,206.5 L254.1,206.4 L255.4,206.7 L256.7,207.2 L258.0,207.9 L259.3,208.8
		L260.6,210.0 L261.9,211.3 L263.2,212.8 L264.5,214.4 L265.8,216.1 L267.1,217.9 L268.4,219.8 L269.7,221.6
		L271.0,223.4 L272.3,225.2 L273.6,226.9 L274.9,228.4 L276.2,229.9 L277.5,231.2 L278.8,232.3 L280.1,233.2
		L281.4,233.9 L282.7,234.4 L284.0,234.7 L285.3,234.7 L286.6,234.5 L287.9,234.2 L289.2,233.6 L290.5,232.8
		L291.8,231.8 L293.1,230.6 L294.4,229.3 L295.7,227.9 L297.0,226.3 L298.3,224.7 L299.6,223.0 L300.9,221.3
		L302.2,219.5 L303.5,217.8 L304.8,216.1 L306.1,214.4 L307.4,212.9 L308.7,211.4 L310.0,210.0 L311.3,208.8
		L312.6,207.7 L313.9,206.8 L315.2,206.1 L316.4,205.5 L317.7,205.1 L319.0,204.9 L320.3,204.9 L321.6,205.1
		L322.9,205.4 L324.2,205.9 L325.5,206.6 L326.8,207.4 L328.1,208.4 L329.4,209.6 L330.7,210.8 L332.0,212.1
		L333.3,213.6 L334.6,215.1 L335.9,216.6 L337.2,218.2 L338.5,219.9 L339.8,221.5 L341.1,223.1 L342.4,224.7
		L343.7,226.2 L345.0,227.7 L346.3,229.1 L347.6,230.4 L348.9,231.7 L350.2,232.8 L351.5,233.8 L352.8,234.7
		L354.1,235.4 L355.4,236.1 L356.7,236.6 L358.0,236.9 L359.3,237.1 L360.6,237.2 L361.9,237.1 L363.2,236.9
		L364.5,236.6 L365.8,236.1 L367.1,235.6 L368.4,234.9 L369.7,234.1 L371.0,233.2 L372.3,232.2 L373.6,231.1
		L374.9,230.0 L376.2,228.7 L377.5,227.5 L378.8,226.1 L380.1,224.8 L381.4,223.4 L382.7,222.0 L384.0,220.6
		L385.3,219.2 L386.6,217.8 L387.9,216.4 L389.2,215.0 L390.5,213.6 L391.8,212.3 L393.1,211.1 L394.4,209.8
		L395.7,208.7 L397.0,207.5 L398.3,206.5 L399.6,205.5 L400.9,204.5 L402.2,203.7 L403.5,202.9 L404.8,202.1
		L406.1,201.5 L407.4,200.9 L408.7,200.4 L410.0,199.9 L411.3,199.5 L412.6,199.2 L413.9,199.0 L415.2,198.8
		L416.5,198.7 L417.8,198.6 L419.1,198.6 L420.4,198.6 L421.7,198.7 L423.0,198.9 L424.3,199.1 L425.6,199.3
		L426.9,199.6 L428.2,199.9 L429.5,200.2 L430.8,200.6 L432.1,201.0 L433.4,201.4 L434.7,201.9 L436.0,202.3
		L437.3,202.8 L438.6,203.3 L439.9,203.8 L441.2,204.3 L442.5,204.9 L443.8,205.4 L445.1,205.9 L446.4,206.4
		L447.7,206.9 L449.0,207.5 L450.3,208.0 L451.6,208.5 L452.9,209.0 L454.2,209.5 L455.5,210.0 L456.8,210.4
		L458.1,210.9 L459.4,211.3 L460.7,211.8 L462.0,212.2 L463.3,212.6 L464.6,213.0 L465.9,213.4 L467.2,213.8
		L468.5,214.1 L469.8,214.5 L471.1,214.8 L472.4,215.1 L473.7,215.4 L475.0,215.7 L476.3,216.0 L477.6,216.2
		L478.9,216.5 L480.2,216.7 L481.5,216.9 L482.8,217.1 L484.1,217.3 L485.4,217.5 L486.7,217.7 L488.0,217.9
		L489.2,218.1 L490.5,218.2 L491.8,218.3 L493.1,218.5 L494.4,218.6 L495.7,218.7 L497.0,218.8 L498.3,218.9
		L499.6,219.0 L500.9,219.1 L502.2,219.2 L503.5,219.3 L504.8,219.4 L506.1,219.4 L507.4,219.5 L508.7,219.6
		L510.0,219.6 L511.3,219.7 L512.6,219.7 L513.9,219.8 L515.2,219.8 L516.5,219.8 L517.8,219.9 L519.1,219.9
		L520.4,219.9 L521.7,220.0 L523.0,220.0 L524.3,220.0 L525.6,220.0 L526.9,220.0 L528.2,220.1 L529.5,220.1
		L530.8,220.1 L532.1,220.1 L533.4,220.1 L534.7,220.1 L536.0,220.1 L537.3,220.2 L538.6,220.2 L539.9,220.2
		L541.2,220.2 L542.5,220.2 L543.8,220.2 L545.1,220.2 L546.4,220.2 L547.7,220.2 L549.0,220.2 L550.3,220.2
		L551.6,220.2 L552.9,220.2 L554.2,220.2 L555.5,220.2 L556.8,220.2 L558.1,220.2 L559.4,220.2 L560.7,220.2
		L562.0,220.2 L563.3,220.2 L564.6,220.2 L565.9,220.2 L567.2,220.2 L568.5,220.2 L569.8,220.2 L571.1,220.2
		L572.4,220.2 L573.7,220.2  '/></g>
	</g>
	<g id="gnuplot_plot_2" ><title>Bi</title>
<g fill="none" color="black" stroke="currentColor" stroke-width="1.00" stroke-linecap="butt" stroke-linejoin="miter">
	<g transform="translate(71.9,58.0)" stroke="none" fill="black" font-family="Arial" font-size="12.00"  text-anchor="end">
		<text><tspan font-family="Arial" >B</tspan><tspan font-family="Arial"  font-size="9.6" dy="3.60px">i</tspan><tspan font-size="12.0" dy="-3.60"></tspan></text>
	</g>
</g>
<g fill="none" color="black" stroke="currentColor" stroke-width="1.00" stroke-linecap="butt" stroke-linejoin="miter">
	<path stroke='rgb(  0, 158, 115)'  d='M80.2,54.1 L122.4,54.1 M55.3,223.0 L56.6,220.8 L57.9,218.6 L59.2,216.4 L60.5,214.4 L61.8,212.6
		L63.1,211.0 L64.4,209.8 L65.7,209.0 L67.0,208.6 L68.3,208.6 L69.6,209.1 L70.9,209.9 L72.2,211.1
		L73.5,212.6 L74.8,214.4 L76.1,216.5 L77.4,218.6 L78.7,220.8 L80.0,223.0 L81.3,225.1 L82.6,227.0
		L83.9,228.7 L85.2,230.1 L86.5,231.1 L87.8,231.8 L89.1,232.1 L90.4,232.0 L91.7,231.5 L93.0,230.6
		L94.3,229.3 L95.6,227.7 L96.9,225.9 L98.2,223.9 L99.5,221.8 L100.8,219.7 L102.1,217.5 L103.4,215.4
		L104.7,213.5 L106.0,211.9 L107.3,210.4 L108.6,209.3 L109.9,208.6 L111.2,208.2 L112.5,208.3 L113.8,208.7
		L115.1,209.4 L116.4,210.5 L117.7,212.0 L119.0,213.6 L120.3,215.5 L121.6,217.6 L122.9,219.7 L124.2,221.8
		L125.5,223.9 L126.8,225.9 L128.1,227.7 L129.4,229.3 L130.7,230.6 L132.0,231.6 L133.3,232.2 L134.6,232.5
		L135.9,232.4 L137.2,232.0 L138.5,231.2 L139.8,230.1 L141.1,228.7 L142.3,227.1 L143.6,225.3 L144.9,223.3
		L146.2,221.2 L147.5,219.1 L148.8,217.1 L150.1,215.1 L151.4,213.3 L152.7,211.6 L154.0,210.2 L155.3,209.1
		L156.6,208.3 L157.9,207.9 L159.2,207.7 L160.5,207.9 L161.8,208.5 L163.1,209.4 L164.4,210.5 L165.7,212.0
		L167.0,213.6 L168.3,215.4 L169.6,217.4 L170.9,219.4 L172.2,221.5 L173.5,223.5 L174.8,225.4 L176.1,227.2
		L177.4,228.9 L178.7,230.3 L180.0,231.4 L181.3,232.3 L182.6,232.8 L183.9,233.1 L185.2,233.0 L186.5,232.6
		L187.8,231.9 L189.1,230.9 L190.4,229.6 L191.7,228.1 L193.0,226.5 L194.3,224.6 L195.6,222.7 L196.9,220.7
		L198.2,218.7 L199.5,216.8 L200.8,214.9 L202.1,213.1 L203.4,211.5 L204.7,210.1 L206.0,209.0 L207.3,208.1
		L208.6,207.5 L209.9,207.1 L211.2,207.1 L212.5,207.4 L213.8,207.9 L215.1,208.7 L216.4,209.8 L217.7,211.1
		L219.0,212.6 L220.3,214.3 L221.6,216.1 L222.9,218.0 L224.2,219.9 L225.5,221.9 L226.8,223.8 L228.1,225.6
		L229.4,227.3 L230.7,228.9 L232.0,230.3 L233.3,231.5 L234.6,232.5 L235.9,233.2 L237.2,233.6 L238.5,233.8
		L239.8,233.7 L241.1,233.4 L242.4,232.8 L243.7,231.9 L245.0,230.9 L246.3,229.6 L247.6,228.1 L248.9,226.5
		L250.2,224.8 L251.5,223.0 L252.8,221.1 L254.1,219.2 L255.4,217.4 L256.7,215.6 L258.0,213.9 L259.3,212.2
		L260.6,210.8 L261.9,209.5 L263.2,208.4 L264.5,207.5 L265.8,206.8 L267.1,206.3 L268.4,206.1 L269.7,206.2
		L271.0,206.4 L272.3,206.9 L273.6,207.7 L274.9,208.6 L276.2,209.7 L277.5,211.0 L278.8,212.4 L280.1,214.0
		L281.4,215.7 L282.7,217.4 L284.0,219.2 L285.3,221.0 L286.6,222.7 L287.9,224.5 L289.2,226.2 L290.5,227.8
		L291.8,229.3 L293.1,230.6 L294.4,231.8 L295.7,232.8 L297.0,233.7 L298.3,234.4 L299.6,234.8 L300.9,235.1
		L302.2,235.1 L303.5,235.0 L304.8,234.6 L306.1,234.1 L307.4,233.3 L308.7,232.4 L310.0,231.4 L311.3,230.2
		L312.6,228.8 L313.9,227.4 L315.2,225.8 L316.4,224.2 L317.7,222.6 L319.0,220.9 L320.3,219.2 L321.6,217.5
		L322.9,215.9 L324.2,214.3 L325.5,212.8 L326.8,211.3 L328.1,210.0 L329.4,208.8 L330.7,207.7 L332.0,206.7
		L333.3,205.9 L334.6,205.2 L335.9,204.7 L337.2,204.4 L338.5,204.2 L339.8,204.2 L341.1,204.4 L342.4,204.7
		L343.7,205.2 L345.0,205.8 L346.3,206.5 L347.6,207.4 L348.9,208.4 L350.2,209.5 L351.5,210.8 L352.8,212.1
		L354.1,213.4 L355.4,214.8 L356.7,216.3 L358.0,217.8 L359.3,219.4 L360.6,220.9 L361.9,222.4 L363.2,223.9
		L364.5,225.4 L365.8,226.9 L367.1,228.3 L368.4,229.6 L369.7,230.9 L371.0,232.1 L372.3,233.2 L373.6,234.2
		L374.9,235.1 L376.2,235.9 L377.5,236.6 L378.8,237.2 L380.1,237.7 L381.4,238.1 L382.7,238.4 L384.0,238.6
		L385.3,238.6 L386.6,238.6 L387.9,238.5 L389.2,238.2 L390.5,237.9 L391.8,237.4 L393.1,236.9 L394.4,236.3
		L395.7,235.6 L397.0,234.9 L398.3,234.1 L399.6,233.2 L400.9,232.2 L402.2,231.2 L403.5,230.2 L404.8,229.1
		L406.1,228.0 L407.4,226.9 L408.7,225.7 L410.0,224.5 L411.3,223.3 L412.6,222.1 L413.9,220.9 L415.2,219.7
		L416.5,218.5 L417.8,217.2 L419.1,216.0 L420.4,214.9 L421.7,213.7 L423.0,212.5 L424.3,211.4 L425.6,210.2
		L426.9,209.1 L428.2,208.0 L429.5,207.0 L430.8,205.9 L432.1,204.9 L433.4,203.9 L434.7,202.9 L436.0,201.9
		L437.3,200.9 L438.6,200.0 L439.9,199.0 L441.2,198.1 L442.5,197.2 L443.8,196.3 L445.1,195.4 L446.4,194.5
		L447.7,193.6 L449.0,192.7 L450.3,191.7 L451.6,190.8 L452.9,189.8 L454.2,188.8 L455.5,187.8 L456.8,186.8
		L458.1,185.7 L459.4,184.6 L460.7,183.4 L462.0,182.2 L463.3,180.9 L464.6,179.5 L465.9,178.1 L467.2,176.6
		L468.5,175.0 L469.8,173.3 L471.1,171.4 L472.4,169.5 L473.7,167.4 L475.0,165.2 L476.3,162.8 L477.6,160.2
		L478.9,157.5 L480.2,154.5 L481.5,151.4 L482.8,148.0 L484.1,144.3 L485.4,140.3 L486.7,136.1 L488.0,131.4
		L489.2,126.5 L490.5,121.1 L491.8,115.3 L493.1,109.0 L494.4,102.2 L495.7,94.9 L497.0,86.9 L498.3,78.3
		L499.6,68.9 L500.9,58.8 L502.2,47.7 L503.5,35.8 L504.8,22.7 L505.3,18.1  '/></g>
	</g>
<g fill="none" color="white" stroke="rgb(  0, 158, 115)" stroke-width="2.00" stroke-linecap="butt" stroke-linejoin="miter">
</g>
<g fill="none" color="black" stroke="currentColor" stroke-width="2.00" stroke-linecap="butt" stroke-linejoin="miter">
</g>
<g fill="none" color="black" stroke="black" stroke-width="1.00" stroke-linecap="butt" stroke-linejoin="miter">
</g>
<g fill="none" color="black" stroke="currentColor" stroke-width="1.00" stroke-linecap="butt" stroke-linejoin="miter">
	<path stroke='black'  d='M55.3,18.1 L55.3,422.4 L575.0,422.4 L575.0,18.1 L55.3,18.1 Z  '/></g>
<g fill="none" color="black" stroke="currentColor" stroke-width="1.00" stroke-linecap="butt" stroke-linejoin="miter">
</g>
</g>
</svg>

