0.23 4.64 0.42 4.54266
1.29 3.38 0.37 3.61045
2.35 3.01 0.34 2.94072
3.41 2.55 0.31 2.45957
4.47 2.29 0.29 2.1139
5.53 1.67 0.27 1.86556
6.59 1.59 0.26 1.68715
7.65 1.69 0.25 1.55897
8.71 1.38 0.24 1.46688
9.77 1.46 0.24 1.40073
