0 4.78894
0.01 4.77786
0.02 4.76682
0.03 4.75581
0.04 4.74483
0.05 4.73389
0.06 4.72298
0.07 4.71211
0.08 4.70127
0.09 4.69046
0.1 4.67969
0.11 4.66895
0.12 4.65824
0.13 4.64757
0.14 4.63693
0.15 4.62632
0.16 4.61575
0.17 4.60521
0.18 4.5947
0.19 4.58423
0.2 4.57379
0.21 4.56338
0.22 4.553
0.23 4.54266
0.24 4.53234
0.25 4.52206
0.26 4.51182
0.27 4.5016
0.28 4.49141
0.29 4.48126
0.3 4.47114
0.31 4.46105
0.32 4.45099
0.33 4.44097
0.34 4.43097
0.35 4.42101
0.36 4.41107
0.37 4.40117
0.38 4.3913
0.39 4.38146
0.4 4.37165
0.41 4.36187
0.42 4.35212
0.43 4.3424
0.44 4.33271
0.45 4.32305
0.46 4.31342
0.47 4.30382
0.48 4.29426
0.49 4.28472
0.5 4.27521
0.51 4.26573
0.52 4.25628
0.53 4.24686
0.54 4.23747
0.55 4.22811
0.56 4.21877
0.57 4.20947
0.58 4.2002
0.59 4.19095
0.6 4.18173
0.61 4.17254
0.62 4.16338
0.63 4.15425
0.64 4.14515
0.65 4.13608
0.66 4.12703
0.67 4.11801
0.68 4.10902
0.69 4.10006
0.7 4.09113
0.71 4.08222
0.72 4.07334
0.73 4.06449
0.74 4.05567
0.75 4.04687
0.76 4.03811
0.77 4.02937
0.78 4.02065
0.79 4.01197
0.8 4.00331
0.81 3.99467
0.82 3.98607
0.83 3.97749
0.84 3.96894
0.85 3.96041
0.86 3.95191
0.87 3.94344
0.88 3.93499
0.89 3.92658
0.9 3.91818
0.91 3.90981
0.92 3.90147
0.93 3.89316
0.94 3.88487
0.95 3.8766
0.96 3.86837
0.97 3.86016
0.98 3.85197
0.99 3.84381
1 3.83567
1.01 3.82756
1.02 3.81948
1.03 3.81142
1.04 3.80338
1.05 3.79537
1.06 3.78739
1.07 3.77943
1.08 3.77149
1.09 3.76358
1.1 3.7557
1.11 3.74784
1.12 3.74
1.13 3.73219
1.14 3.7244
1.15 3.71663
1.16 3.7089
1.17 3.70118
1.18 3.69349
1.19 3.68582
1.2 3.67818
1.21 3.67056
1.22 3.66296
1.23 3.65539
1.24 3.64784
1.25 3.64032
1.26 3.63281
1.27 3.62534
1.28 3.61788
1.29 3.61045
1.3 3.60304
1.31 3.59565
1.32 3.58829
1.33 3.58095
1.34 3.57363
1.35 3.56634
1.36 3.55907
1.37 3.55182
1.38 3.54459
1.39 3.53739
1.4 3.53021
1.41 3.52305
1.42 3.51591
1.43 3.5088
1.44 3.50171
1.45 3.49464
1.46 3.48759
1.47 3.48056
1.48 3.47356
1.49 3.46658
1.5 3.45962
1.51 3.45268
1.52 3.44576
1.53 3.43886
1.54 3.43199
1.55 3.42514
1.56 3.41831
1.57 3.4115
1.58 3.40471
1.59 3.39794
1.6 3.39119
1.61 3.38447
1.62 3.37776
1.63 3.37108
1.64 3.36441
1.65 3.35777
1.66 3.35115
1.67 3.34455
1.68 3.33797
1.69 3.33141
1.7 3.32487
1.71 3.31835
1.72 3.31185
1.73 3.30537
1.74 3.29891
1.75 3.29248
1.76 3.28606
1.77 3.27966
1.78 3.27328
1.79 3.26692
1.8 3.26058
1.81 3.25426
1.82 3.24797
1.83 3.24169
1.84 3.23543
1.85 3.22918
1.86 3.22296
1.87 3.21676
1.88 3.21058
1.89 3.20442
1.9 3.19827
1.91 3.19215
1.92 3.18604
1.93 3.17995
1.94 3.17389
1.95 3.16784
1.96 3.16181
1.97 3.1558
1.98 3.1498
1.99 3.14383
2 3.13787
2.01 3.13194
2.02 3.12602
2.03 3.12012
2.04 3.11424
2.05 3.10838
2.06 3.10253
2.07 3.0967
2.08 3.0909
2.09 3.08511
2.1 3.07933
2.11 3.07358
2.12 3.06784
2.13 3.06212
2.14 3.05642
2.15 3.05074
2.16 3.04507
2.17 3.03943
2.18 3.0338
2.19 3.02818
2.2 3.02259
2.21 3.01701
2.22 3.01145
2.23 3.00591
2.24 3.00038
2.25 2.99487
2.26 2.98938
2.27 2.98391
2.28 2.97845
2.29 2.97301
2.3 2.96759
2.31 2.96218
2.32 2.95679
2.33 2.95142
2.34 2.94606
2.35 2.94072
2.36 2.9354
2.37 2.9301
2.38 2.92481
2.39 2.91953
2.4 2.91428
2.41 2.90904
2.42 2.90381
2.43 2.8986
2.44 2.89341
2.45 2.88824
2.46 2.88308
2.47 2.87793
2.48 2.87281
2.49 2.8677
2.5 2.8626
2.51 2.85752
2.52 2.85246
2.53 2.84741
2.54 2.84238
2.55 2.83736
2.56 2.83236
2.57 2.82738
2.58 2.82241
2.59 2.81745
2.6 2.81251
2.61 2.80759
2.62 2.80268
2.63 2.79779
2.64 2.79291
2.65 2.78805
2.66 2.7832
2.67 2.77837
2.68 2.77355
2.69 2.76875
2.7 2.76397
2.71 2.75919
2.72 2.75444
2.73 2.74969
2.74 2.74497
2.75 2.74025
2.76 2.73556
2.77 2.73087
2.78 2.7262
2.79 2.72155
2.8 2.71691
2.81 2.71228
2.82 2.70767
2.83 2.70308
2.84 2.69849
2.85 2.69392
2.86 2.68937
2.87 2.68483
2.88 2.68031
2.89 2.67579
2.9 2.6713
2.91 2.66681
2.92 2.66234
2.93 2.65789
2.94 2.65345
2.95 2.64902
2.96 2.6446
2.97 2.6402
2.98 2.63582
2.99 2.63144
3 2.62709
3.01 2.62274
3.02 2.61841
3.03 2.61409
3.04 2.60978
3.05 2.60549
3.06 2.60121
3.07 2.59695
3.08 2.5927
3.09 2.58846
3.1 2.58423
3.11 2.58002
3.12 2.57582
3.13 2.57164
3.14 2.56746
3.15 2.5633
3.16 2.55916
3.17 2.55502
3.18 2.5509
3.19 2.54679
3.2 2.5427
3.21 2.53861
3.22 2.53454
3.23 2.53049
3.24 2.52644
3.25 2.52241
3.26 2.51839
3.27 2.51438
3.28 2.51039
3.29 2.5064
3.3 2.50243
3.31 2.49848
3.32 2.49453
3.33 2.4906
3.34 2.48668
3.35 2.48277
3.36 2.47887
3.37 2.47499
3.38 2.47112
3.39 2.46726
3.4 2.46341
3.41 2.45957
3.42 2.45575
3.43 2.45194
3.44 2.44814
3.45 2.44435
3.46 2.44057
3.47 2.43681
3.48 2.43306
3.49 2.42931
3.5 2.42558
3.51 2.42187
3.52 2.41816
3.53 2.41447
3.54 2.41078
3.55 2.40711
3.56 2.40345
3.57 2.3998
3.58 2.39616
3.59 2.39254
3.6 2.38892
3.61 2.38532
3.62 2.38172
3.63 2.37814
3.64 2.37457
3.65 2.37101
3.66 2.36747
3.67 2.36393
3.68 2.3604
3.69 2.35689
3.7 2.35338
3.71 2.34989
3.72 2.34641
3.73 2.34294
3.74 2.33948
3.75 2.33603
3.76 2.33259
3.77 2.32916
3.78 2.32574
3.79 2.32233
3.8 2.31894
3.81 2.31555
3.82 2.31218
3.83 2.30881
3.84 2.30546
3.85 2.30211
3.86 2.29878
3.87 2.29546
3.88 2.29214
3.89 2.28884
3.9 2.28555
3.91 2.28227
3.92 2.279
3.93 2.27573
3.94 2.27248
3.95 2.26924
3.96 2.26601
3.97 2.26279
3.98 2.25958
3.99 2.25638
4 2.25319
4.01 2.25001
4.02 2.24683
4.03 2.24367
4.04 2.24052
4.05 2.23738
4.06 2.23425
4.07 2.23113
4.08 2.22801
4.09 2.22491
4.1 2.22182
4.11 2.21873
4.12 2.21566
4.13 2.2126
4.14 2.20954
4.15 2.2065
4.16 2.20346
4.17 2.20044
4.18 2.19742
4.19 2.19441
4.2 2.19141
4.21 2.18842
4.22 2.18544
4.23 2.18247
4.24 2.17951
4.25 2.17656
4.26 2.17362
4.27 2.17069
4.28 2.16776
4.29 2.16485
4.3 2.16194
4.31 2.15904
4.32 2.15616
4.33 2.15328
4.34 2.15041
4.35 2.14755
4.36 2.1447
4.37 2.14185
4.38 2.13902
4.39 2.13619
4.4 2.13338
4.41 2.13057
4.42 2.12777
4.43 2.12498
4.44 2.1222
4.45 2.11942
4.46 2.11666
4.47 2.1139
4.48 2.11116
4.49 2.10842
4.5 2.10569
4.51 2.10297
4.52 2.10025
4.53 2.09755
4.54 2.09485
4.55 2.09216
4.56 2.08948
4.57 2.08681
4.58 2.08415
4.59 2.0815
4.6 2.07885
4.61 2.07621
4.62 2.07358
4.63 2.07096
4.64 2.06835
4.65 2.06574
4.66 2.06314
4.67 2.06055
4.68 2.05797
4.69 2.0554
4.7 2.05284
4.71 2.05028
4.72 2.04773
4.73 2.04519
4.74 2.04266
4.75 2.04013
4.76 2.03761
4.77 2.0351
4.78 2.0326
4.79 2.03011
4.8 2.02762
4.81 2.02514
4.82 2.02267
4.83 2.02021
4.84 2.01775
4.85 2.01531
4.86 2.01287
4.87 2.01043
4.88 2.00801
4.89 2.00559
4.9 2.00318
4.91 2.00078
4.92 1.99838
4.93 1.996
4.94 1.99362
4.95 1.99124
4.96 1.98888
4.97 1.98652
4.98 1.98417
4.99 1.98183
5 1.97949
5.01 1.97716
5.02 1.97484
5.03 1.97253
5.04 1.97022
5.05 1.96792
5.06 1.96563
5.07 1.96334
5.08 1.96106
5.09 1.95879
5.1 1.95653
5.11 1.95427
5.12 1.95202
5.13 1.94978
5.14 1.94754
5.15 1.94531
5.16 1.94309
5.17 1.94088
5.18 1.93867
5.19 1.93647
5.2 1.93427
5.21 1.93209
5.22 1.9299
5.23 1.92773
5.24 1.92556
5.25 1.9234
5.26 1.92125
5.27 1.9191
5.28 1.91696
5.29 1.91483
5.3 1.9127
5.31 1.91058
5.32 1.90847
5.33 1.90636
5.34 1.90426
5.35 1.90216
5.36 1.90008
5.37 1.89799
5.38 1.89592
5.39 1.89385
5.4 1.89179
5.41 1.88973
5.42 1.88769
5.43 1.88564
5.44 1.88361
5.45 1.88158
5.46 1.87955
5.47 1.87754
5.48 1.87552
5.49 1.87352
5.5 1.87152
5.51 1.86953
5.52 1.86754
5.53 1.86556
5.54 1.86359
5.55 1.86162
5.56 1.85966
5.57 1.85771
5.58 1.85576
5.59 1.85381
5.6 1.85188
5.61 1.84994
5.62 1.84802
5.63 1.8461
5.64 1.84419
5.65 1.84228
5.66 1.84038
5.67 1.83848
5.68 1.83659
5.69 1.83471
5.7 1.83283
5.71 1.83096
5.72 1.8291
5.73 1.82724
5.74 1.82538
5.75 1.82353
5.76 1.82169
5.77 1.81985
5.78 1.81802
5.79 1.8162
5.8 1.81438
5.81 1.81256
5.82 1.81075
5.83 1.80895
5.84 1.80715
5.85 1.80536
5.86 1.80358
5.87 1.8018
5.88 1.80002
5.89 1.79825
5.9 1.79649
5.91 1.79473
5.92 1.79297
5.93 1.79123
5.94 1.78949
5.95 1.78775
5.96 1.78602
5.97 1.78429
5.98 1.78257
5.99 1.78086
6 1.77915
6.01 1.77744
6.02 1.77574
6.03 1.77405
6.04 1.77236
6.05 1.77068
6.06 1.769
6.07 1.76733
6.08 1.76566
6.09 1.76399
6.1 1.76234
6.11 1.76069
6.12 1.75904
6.13 1.7574
6.14 1.75576
6.15 1.75413
6.16 1.7525
6.17 1.75088
6.18 1.74926
6.19 1.74765
6.2 1.74605
6.21 1.74444
6.22 1.74285
6.23 1.74126
6.24 1.73967
6.25 1.73809
6.26 1.73651
6.27 1.73494
6.28 1.73337
6.29 1.73181
6.3 1.73025
6.31 1.7287
6.32 1.72715
6.33 1.72561
6.34 1.72407
6.35 1.72254
6.36 1.72101
6.37 1.71949
6.38 1.71797
6.39 1.71646
6.4 1.71495
6.41 1.71344
6.42 1.71194
6.43 1.71045
6.44 1.70896
6.45 1.70747
6.46 1.70599
6.47 1.70451
6.48 1.70304
6.49 1.70157
6.5 1.70011
6.51 1.69865
6.52 1.6972
6.53 1.69575
6.54 1.69431
6.55 1.69287
6.56 1.69143
6.57 1.69
6.58 1.68857
6.59 1.68715
6.6 1.68573
6.61 1.68432
6.62 1.68291
6.63 1.6815
6.64 1.6801
6.65 1.67871
6.66 1.67732
6.67 1.67593
6.68 1.67455
6.69 1.67317
6.7 1.67179
6.71 1.67042
6.72 1.66906
6.73 1.66769
6.74 1.66634
6.75 1.66498
6.76 1.66364
6.77 1.66229
6.78 1.66095
6.79 1.65961
6.8 1.65828
6.81 1.65695
6.82 1.65563
6.83 1.65431
6.84 1.65299
6.85 1.65168
6.86 1.65037
6.87 1.64907
6.88 1.64777
6.89 1.64648
6.9 1.64519
6.91 1.6439
6.92 1.64262
6.93 1.64134
6.94 1.64006
6.95 1.63879
6.96 1.63752
6.97 1.63626
6.98 1.635
6.99 1.63374
7 1.63249
7.01 1.63124
7.02 1.63
7.03 1.62876
7.04 1.62752
7.05 1.62629
7.06 1.62506
7.07 1.62384
7.08 1.62262
7.09 1.6214
7.1 1.62019
7.11 1.61898
7.12 1.61777
7.13 1.61657
7.14 1.61537
7.15 1.61418
7.16 1.61299
7.17 1.6118
7.18 1.61062
7.19 1.60944
7.2 1.60826
7.21 1.60709
7.22 1.60592
7.23 1.60476
7.24 1.6036
7.25 1.60244
7.26 1.60128
7.27 1.60013
7.28 1.59899
7.29 1.59784
7.3 1.5967
7.31 1.59557
7.32 1.59443
7.33 1.59331
7.34 1.59218
7.35 1.59106
7.36 1.58994
7.37 1.58882
7.38 1.58771
7.39 1.5866
7.4 1.5855
7.41 1.5844
7.42 1.5833
7.43 1.58221
7.44 1.58111
7.45 1.58003
7.46 1.57894
7.47 1.57786
7.48 1.57678
7.49 1.57571
7.5 1.57464
7.51 1.57357
7.52 1.57251
7.53 1.57145
7.54 1.57039
7.55 1.56933
7.56 1.56828
7.57 1.56724
7.58 1.56619
7.59 1.56515
7.6 1.56411
7.61 1.56308
7.62 1.56205
7.63 1.56102
7.64 1.55999
7.65 1.55897
7.66 1.55795
7.67 1.55694
7.68 1.55592
7.69 1.55492
7.7 1.55391
7.71 1.55291
7.72 1.55191
7.73 1.55091
7.74 1.54992
7.75 1.54893
7.76 1.54794
7.77 1.54695
7.78 1.54597
7.79 1.54499
7.8 1.54402
7.81 1.54305
7.82 1.54208
7.83 1.54111
7.84 1.54015
7.85 1.53919
7.86 1.53823
7.87 1.53728
7.88 1.53633
7.89 1.53538
7.9 1.53443
7.91 1.53349
7.92 1.53255
7.93 1.53161
7.94 1.53068
7.95 1.52975
7.96 1.52882
7.97 1.5279
7.98 1.52698
7.99 1.52606
8 1.52514
8.01 1.52423
8.02 1.52332
8.03 1.52241
8.04 1.52151
8.05 1.5206
8.06 1.5197
8.07 1.51881
8.08 1.51791
8.09 1.51702
8.1 1.51614
8.11 1.51525
8.12 1.51437
8.13 1.51349
8.14 1.51261
8.15 1.51174
8.16 1.51086
8.17 1.51
8.18 1.50913
8.19 1.50827
8.2 1.50741
8.21 1.50655
8.22 1.50569
8.23 1.50484
8.24 1.50399
8.25 1.50314
8.26 1.5023
8.27 1.50145
8.28 1.50062
8.29 1.49978
8.3 1.49894
8.31 1.49811
8.32 1.49728
8.33 1.49646
8.34 1.49563
8.35 1.49481
8.36 1.49399
8.37 1.49318
8.38 1.49236
8.39 1.49155
8.4 1.49074
8.41 1.48994
8.42 1.48913
8.43 1.48833
8.44 1.48753
8.45 1.48674
8.46 1.48594
8.47 1.48515
8.48 1.48436
8.49 1.48358
8.5 1.48279
8.51 1.48201
8.52 1.48123
8.53 1.48046
8.54 1.47968
8.55 1.47891
8.56 1.47814
8.57 1.47737
8.58 1.47661
8.59 1.47585
8.6 1.47509
8.61 1.47433
8.62 1.47357
8.63 1.47282
8.64 1.47207
8.65 1.47132
8.66 1.47058
8.67 1.46983
8.68 1.46909
8.69 1.46835
8.7 1.46762
8.71 1.46688
8.72 1.46615
8.73 1.46542
8.74 1.4647
8.75 1.46397
8.76 1.46325
8.77 1.46253
8.78 1.46181
8.79 1.46109
8.8 1.46038
8.81 1.45967
8.82 1.45896
8.83 1.45825
8.84 1.45755
8.85 1.45684
8.86 1.45614
8.87 1.45544
8.88 1.45475
8.89 1.45405
8.9 1.45336
8.91 1.45267
8.92 1.45198
8.93 1.4513
8.94 1.45062
8.95 1.44993
8.96 1.44926
8.97 1.44858
8.98 1.4479
8.99 1.44723
9 1.44656
9.01 1.44589
9.02 1.44523
9.03 1.44456
9.04 1.4439
9.05 1.44324
9.06 1.44258
9.07 1.44192
9.08 1.44127
9.09 1.44062
9.1 1.43997
9.11 1.43932
9.12 1.43867
9.13 1.43803
9.14 1.43739
9.15 1.43675
9.16 1.43611
9.17 1.43547
9.18 1.43484
9.19 1.43421
9.2 1.43358
9.21 1.43295
9.22 1.43232
9.23 1.4317
9.24 1.43108
9.25 1.43046
9.26 1.42984
9.27 1.42922
9.28 1.42861
9.29 1.42799
9.3 1.42738
9.31 1.42677
9.32 1.42617
9.33 1.42556
9.34 1.42496
9.35 1.42436
9.36 1.42376
9.37 1.42316
9.38 1.42257
9.39 1.42197
9.4 1.42138
9.41 1.42079
9.42 1.4202
9.43 1.41962
9.44 1.41903
9.45 1.41845
9.46 1.41787
9.47 1.41729
9.48 1.41671
9.49 1.41613
9.5 1.41556
9.51 1.41499
9.52 1.41442
9.53 1.41385
9.54 1.41328
9.55 1.41272
9.56 1.41216
9.57 1.41159
9.58 1.41103
9.59 1.41048
9.6 1.40992
9.61 1.40937
9.62 1.40881
9.63 1.40826
9.64 1.40771
9.65 1.40717
9.66 1.40662
9.67 1.40608
9.68 1.40553
9.69 1.40499
9.7 1.40445
9.71 1.40392
9.72 1.40338
9.73 1.40285
9.74 1.40231
9.75 1.40178
9.76 1.40125
9.77 1.40073
9.78 1.4002
9.79 1.39968
9.8 1.39915
9.81 1.39863
9.82 1.39811
9.83 1.3976
9.84 1.39708
9.85 1.39657
9.86 1.39605
9.87 1.39554
9.88 1.39503
9.89 1.39452
9.9 1.39402
9.91 1.39351
9.92 1.39301
9.93 1.39251
9.94 1.39201
9.95 1.39151
9.96 1.39101
9.97 1.39052
9.98 1.39002
9.99 1.38953
10 1.38904
