\relax 
\newlabel{diffeq}{{1}{1}}
\newlabel{theoretical}{{2}{1}}
\@writefile{lof}{\contentsline {figure}{\numberline {1}{\ignorespaces The purple solid line shows the inverse cotangent function acquired by solving Eq. 1\hbox {}. The red dashed line shows the expected behaviour as described by Eq. 2\hbox {}.}}{2}}
